%!PS-Adobe-2.0
%%Title: plot0.4.eps
%%Creator: gnuplot 4.6 patchlevel 4
%%CreationDate: Fri Dec 11 12:43:20 2015
%%DocumentFonts: (atend)
%%BoundingBox: 50 50 554 770
%%Orientation: Landscape
%%Pages: (atend)
%%EndComments
%%BeginProlog
/gnudict 256 dict def
gnudict begin
%
% The following true/false flags may be edited by hand if desired.
% The unit line width and grayscale image gamma correction may also be changed.
%
/Color false def
/Blacktext false def
/Solid false def
/Dashlength 1 def
/Landscape true def
/Level1 false def
/Rounded false def
/ClipToBoundingBox false def
/SuppressPDFMark false def
/TransparentPatterns false def
/gnulinewidth 5.000 def
/userlinewidth gnulinewidth def
/Gamma 1.0 def
/BackgroundColor {-1.000 -1.000 -1.000} def
%
/vshift -46 def
/dl1 {
  10.0 Dashlength mul mul
  Rounded { currentlinewidth 0.75 mul sub dup 0 le { pop 0.01 } if } if
} def
/dl2 {
  10.0 Dashlength mul mul
  Rounded { currentlinewidth 0.75 mul add } if
} def
/hpt_ 31.5 def
/vpt_ 31.5 def
/hpt hpt_ def
/vpt vpt_ def
/doclip {
  ClipToBoundingBox {
    newpath 50 50 moveto 554 50 lineto 554 770 lineto 50 770 lineto closepath
    clip
  } if
} def
%
% Gnuplot Prolog Version 4.6 (September 2012)
%
%/SuppressPDFMark true def
%
/M {moveto} bind def
/L {lineto} bind def
/R {rmoveto} bind def
/V {rlineto} bind def
/N {newpath moveto} bind def
/Z {closepath} bind def
/C {setrgbcolor} bind def
/f {rlineto fill} bind def
/g {setgray} bind def
/Gshow {show} def   % May be redefined later in the file to support UTF-8
/vpt2 vpt 2 mul def
/hpt2 hpt 2 mul def
/Lshow {currentpoint stroke M 0 vshift R 
	Blacktext {gsave 0 setgray show grestore} {show} ifelse} def
/Rshow {currentpoint stroke M dup stringwidth pop neg vshift R
	Blacktext {gsave 0 setgray show grestore} {show} ifelse} def
/Cshow {currentpoint stroke M dup stringwidth pop -2 div vshift R 
	Blacktext {gsave 0 setgray show grestore} {show} ifelse} def
/UP {dup vpt_ mul /vpt exch def hpt_ mul /hpt exch def
  /hpt2 hpt 2 mul def /vpt2 vpt 2 mul def} def
/DL {Color {setrgbcolor Solid {pop []} if 0 setdash}
 {pop pop pop 0 setgray Solid {pop []} if 0 setdash} ifelse} def
/BL {stroke userlinewidth 2 mul setlinewidth
	Rounded {1 setlinejoin 1 setlinecap} if} def
/AL {stroke userlinewidth 2 div setlinewidth
	Rounded {1 setlinejoin 1 setlinecap} if} def
/UL {dup gnulinewidth mul /userlinewidth exch def
	dup 1 lt {pop 1} if 10 mul /udl exch def} def
/PL {stroke userlinewidth setlinewidth
	Rounded {1 setlinejoin 1 setlinecap} if} def
3.8 setmiterlimit
% Default Line colors
/LCw {1 1 1} def
/LCb {0 0 0} def
/LCa {0 0 0} def
/LC0 {1 0 0} def
/LC1 {0 1 0} def
/LC2 {0 0 1} def
/LC3 {1 0 1} def
/LC4 {0 1 1} def
/LC5 {1 1 0} def
/LC6 {0 0 0} def
/LC7 {1 0.3 0} def
/LC8 {0.5 0.5 0.5} def
% Default Line Types
/LTw {PL [] 1 setgray} def
/LTb {BL [] LCb DL} def
/LTa {AL [1 udl mul 2 udl mul] 0 setdash LCa setrgbcolor} def
/LT0 {PL [] LC0 DL} def
/LT1 {PL [4 dl1 2 dl2] LC1 DL} def
/LT2 {PL [2 dl1 3 dl2] LC2 DL} def
/LT3 {PL [1 dl1 1.5 dl2] LC3 DL} def
/LT4 {PL [6 dl1 2 dl2 1 dl1 2 dl2] LC4 DL} def
/LT5 {PL [3 dl1 3 dl2 1 dl1 3 dl2] LC5 DL} def
/LT6 {PL [2 dl1 2 dl2 2 dl1 6 dl2] LC6 DL} def
/LT7 {PL [1 dl1 2 dl2 6 dl1 2 dl2 1 dl1 2 dl2] LC7 DL} def
/LT8 {PL [2 dl1 2 dl2 2 dl1 2 dl2 2 dl1 2 dl2 2 dl1 4 dl2] LC8 DL} def
/Pnt {stroke [] 0 setdash gsave 1 setlinecap M 0 0 V stroke grestore} def
/Dia {stroke [] 0 setdash 2 copy vpt add M
  hpt neg vpt neg V hpt vpt neg V
  hpt vpt V hpt neg vpt V closepath stroke
  Pnt} def
/Pls {stroke [] 0 setdash vpt sub M 0 vpt2 V
  currentpoint stroke M
  hpt neg vpt neg R hpt2 0 V stroke
 } def
/Box {stroke [] 0 setdash 2 copy exch hpt sub exch vpt add M
  0 vpt2 neg V hpt2 0 V 0 vpt2 V
  hpt2 neg 0 V closepath stroke
  Pnt} def
/Crs {stroke [] 0 setdash exch hpt sub exch vpt add M
  hpt2 vpt2 neg V currentpoint stroke M
  hpt2 neg 0 R hpt2 vpt2 V stroke} def
/TriU {stroke [] 0 setdash 2 copy vpt 1.12 mul add M
  hpt neg vpt -1.62 mul V
  hpt 2 mul 0 V
  hpt neg vpt 1.62 mul V closepath stroke
  Pnt} def
/Star {2 copy Pls Crs} def
/BoxF {stroke [] 0 setdash exch hpt sub exch vpt add M
  0 vpt2 neg V hpt2 0 V 0 vpt2 V
  hpt2 neg 0 V closepath fill} def
/TriUF {stroke [] 0 setdash vpt 1.12 mul add M
  hpt neg vpt -1.62 mul V
  hpt 2 mul 0 V
  hpt neg vpt 1.62 mul V closepath fill} def
/TriD {stroke [] 0 setdash 2 copy vpt 1.12 mul sub M
  hpt neg vpt 1.62 mul V
  hpt 2 mul 0 V
  hpt neg vpt -1.62 mul V closepath stroke
  Pnt} def
/TriDF {stroke [] 0 setdash vpt 1.12 mul sub M
  hpt neg vpt 1.62 mul V
  hpt 2 mul 0 V
  hpt neg vpt -1.62 mul V closepath fill} def
/DiaF {stroke [] 0 setdash vpt add M
  hpt neg vpt neg V hpt vpt neg V
  hpt vpt V hpt neg vpt V closepath fill} def
/Pent {stroke [] 0 setdash 2 copy gsave
  translate 0 hpt M 4 {72 rotate 0 hpt L} repeat
  closepath stroke grestore Pnt} def
/PentF {stroke [] 0 setdash gsave
  translate 0 hpt M 4 {72 rotate 0 hpt L} repeat
  closepath fill grestore} def
/Circle {stroke [] 0 setdash 2 copy
  hpt 0 360 arc stroke Pnt} def
/CircleF {stroke [] 0 setdash hpt 0 360 arc fill} def
/C0 {BL [] 0 setdash 2 copy moveto vpt 90 450 arc} bind def
/C1 {BL [] 0 setdash 2 copy moveto
	2 copy vpt 0 90 arc closepath fill
	vpt 0 360 arc closepath} bind def
/C2 {BL [] 0 setdash 2 copy moveto
	2 copy vpt 90 180 arc closepath fill
	vpt 0 360 arc closepath} bind def
/C3 {BL [] 0 setdash 2 copy moveto
	2 copy vpt 0 180 arc closepath fill
	vpt 0 360 arc closepath} bind def
/C4 {BL [] 0 setdash 2 copy moveto
	2 copy vpt 180 270 arc closepath fill
	vpt 0 360 arc closepath} bind def
/C5 {BL [] 0 setdash 2 copy moveto
	2 copy vpt 0 90 arc
	2 copy moveto
	2 copy vpt 180 270 arc closepath fill
	vpt 0 360 arc} bind def
/C6 {BL [] 0 setdash 2 copy moveto
	2 copy vpt 90 270 arc closepath fill
	vpt 0 360 arc closepath} bind def
/C7 {BL [] 0 setdash 2 copy moveto
	2 copy vpt 0 270 arc closepath fill
	vpt 0 360 arc closepath} bind def
/C8 {BL [] 0 setdash 2 copy moveto
	2 copy vpt 270 360 arc closepath fill
	vpt 0 360 arc closepath} bind def
/C9 {BL [] 0 setdash 2 copy moveto
	2 copy vpt 270 450 arc closepath fill
	vpt 0 360 arc closepath} bind def
/C10 {BL [] 0 setdash 2 copy 2 copy moveto vpt 270 360 arc closepath fill
	2 copy moveto
	2 copy vpt 90 180 arc closepath fill
	vpt 0 360 arc closepath} bind def
/C11 {BL [] 0 setdash 2 copy moveto
	2 copy vpt 0 180 arc closepath fill
	2 copy moveto
	2 copy vpt 270 360 arc closepath fill
	vpt 0 360 arc closepath} bind def
/C12 {BL [] 0 setdash 2 copy moveto
	2 copy vpt 180 360 arc closepath fill
	vpt 0 360 arc closepath} bind def
/C13 {BL [] 0 setdash 2 copy moveto
	2 copy vpt 0 90 arc closepath fill
	2 copy moveto
	2 copy vpt 180 360 arc closepath fill
	vpt 0 360 arc closepath} bind def
/C14 {BL [] 0 setdash 2 copy moveto
	2 copy vpt 90 360 arc closepath fill
	vpt 0 360 arc} bind def
/C15 {BL [] 0 setdash 2 copy vpt 0 360 arc closepath fill
	vpt 0 360 arc closepath} bind def
/Rec {newpath 4 2 roll moveto 1 index 0 rlineto 0 exch rlineto
	neg 0 rlineto closepath} bind def
/Square {dup Rec} bind def
/Bsquare {vpt sub exch vpt sub exch vpt2 Square} bind def
/S0 {BL [] 0 setdash 2 copy moveto 0 vpt rlineto BL Bsquare} bind def
/S1 {BL [] 0 setdash 2 copy vpt Square fill Bsquare} bind def
/S2 {BL [] 0 setdash 2 copy exch vpt sub exch vpt Square fill Bsquare} bind def
/S3 {BL [] 0 setdash 2 copy exch vpt sub exch vpt2 vpt Rec fill Bsquare} bind def
/S4 {BL [] 0 setdash 2 copy exch vpt sub exch vpt sub vpt Square fill Bsquare} bind def
/S5 {BL [] 0 setdash 2 copy 2 copy vpt Square fill
	exch vpt sub exch vpt sub vpt Square fill Bsquare} bind def
/S6 {BL [] 0 setdash 2 copy exch vpt sub exch vpt sub vpt vpt2 Rec fill Bsquare} bind def
/S7 {BL [] 0 setdash 2 copy exch vpt sub exch vpt sub vpt vpt2 Rec fill
	2 copy vpt Square fill Bsquare} bind def
/S8 {BL [] 0 setdash 2 copy vpt sub vpt Square fill Bsquare} bind def
/S9 {BL [] 0 setdash 2 copy vpt sub vpt vpt2 Rec fill Bsquare} bind def
/S10 {BL [] 0 setdash 2 copy vpt sub vpt Square fill 2 copy exch vpt sub exch vpt Square fill
	Bsquare} bind def
/S11 {BL [] 0 setdash 2 copy vpt sub vpt Square fill 2 copy exch vpt sub exch vpt2 vpt Rec fill
	Bsquare} bind def
/S12 {BL [] 0 setdash 2 copy exch vpt sub exch vpt sub vpt2 vpt Rec fill Bsquare} bind def
/S13 {BL [] 0 setdash 2 copy exch vpt sub exch vpt sub vpt2 vpt Rec fill
	2 copy vpt Square fill Bsquare} bind def
/S14 {BL [] 0 setdash 2 copy exch vpt sub exch vpt sub vpt2 vpt Rec fill
	2 copy exch vpt sub exch vpt Square fill Bsquare} bind def
/S15 {BL [] 0 setdash 2 copy Bsquare fill Bsquare} bind def
/D0 {gsave translate 45 rotate 0 0 S0 stroke grestore} bind def
/D1 {gsave translate 45 rotate 0 0 S1 stroke grestore} bind def
/D2 {gsave translate 45 rotate 0 0 S2 stroke grestore} bind def
/D3 {gsave translate 45 rotate 0 0 S3 stroke grestore} bind def
/D4 {gsave translate 45 rotate 0 0 S4 stroke grestore} bind def
/D5 {gsave translate 45 rotate 0 0 S5 stroke grestore} bind def
/D6 {gsave translate 45 rotate 0 0 S6 stroke grestore} bind def
/D7 {gsave translate 45 rotate 0 0 S7 stroke grestore} bind def
/D8 {gsave translate 45 rotate 0 0 S8 stroke grestore} bind def
/D9 {gsave translate 45 rotate 0 0 S9 stroke grestore} bind def
/D10 {gsave translate 45 rotate 0 0 S10 stroke grestore} bind def
/D11 {gsave translate 45 rotate 0 0 S11 stroke grestore} bind def
/D12 {gsave translate 45 rotate 0 0 S12 stroke grestore} bind def
/D13 {gsave translate 45 rotate 0 0 S13 stroke grestore} bind def
/D14 {gsave translate 45 rotate 0 0 S14 stroke grestore} bind def
/D15 {gsave translate 45 rotate 0 0 S15 stroke grestore} bind def
/DiaE {stroke [] 0 setdash vpt add M
  hpt neg vpt neg V hpt vpt neg V
  hpt vpt V hpt neg vpt V closepath stroke} def
/BoxE {stroke [] 0 setdash exch hpt sub exch vpt add M
  0 vpt2 neg V hpt2 0 V 0 vpt2 V
  hpt2 neg 0 V closepath stroke} def
/TriUE {stroke [] 0 setdash vpt 1.12 mul add M
  hpt neg vpt -1.62 mul V
  hpt 2 mul 0 V
  hpt neg vpt 1.62 mul V closepath stroke} def
/TriDE {stroke [] 0 setdash vpt 1.12 mul sub M
  hpt neg vpt 1.62 mul V
  hpt 2 mul 0 V
  hpt neg vpt -1.62 mul V closepath stroke} def
/PentE {stroke [] 0 setdash gsave
  translate 0 hpt M 4 {72 rotate 0 hpt L} repeat
  closepath stroke grestore} def
/CircE {stroke [] 0 setdash 
  hpt 0 360 arc stroke} def
/Opaque {gsave closepath 1 setgray fill grestore 0 setgray closepath} def
/DiaW {stroke [] 0 setdash vpt add M
  hpt neg vpt neg V hpt vpt neg V
  hpt vpt V hpt neg vpt V Opaque stroke} def
/BoxW {stroke [] 0 setdash exch hpt sub exch vpt add M
  0 vpt2 neg V hpt2 0 V 0 vpt2 V
  hpt2 neg 0 V Opaque stroke} def
/TriUW {stroke [] 0 setdash vpt 1.12 mul add M
  hpt neg vpt -1.62 mul V
  hpt 2 mul 0 V
  hpt neg vpt 1.62 mul V Opaque stroke} def
/TriDW {stroke [] 0 setdash vpt 1.12 mul sub M
  hpt neg vpt 1.62 mul V
  hpt 2 mul 0 V
  hpt neg vpt -1.62 mul V Opaque stroke} def
/PentW {stroke [] 0 setdash gsave
  translate 0 hpt M 4 {72 rotate 0 hpt L} repeat
  Opaque stroke grestore} def
/CircW {stroke [] 0 setdash 
  hpt 0 360 arc Opaque stroke} def
/BoxFill {gsave Rec 1 setgray fill grestore} def
/Density {
  /Fillden exch def
  currentrgbcolor
  /ColB exch def /ColG exch def /ColR exch def
  /ColR ColR Fillden mul Fillden sub 1 add def
  /ColG ColG Fillden mul Fillden sub 1 add def
  /ColB ColB Fillden mul Fillden sub 1 add def
  ColR ColG ColB setrgbcolor} def
/BoxColFill {gsave Rec PolyFill} def
/PolyFill {gsave Density fill grestore grestore} def
/h {rlineto rlineto rlineto gsave closepath fill grestore} bind def
%
% PostScript Level 1 Pattern Fill routine for rectangles
% Usage: x y w h s a XX PatternFill
%	x,y = lower left corner of box to be filled
%	w,h = width and height of box
%	  a = angle in degrees between lines and x-axis
%	 XX = 0/1 for no/yes cross-hatch
%
/PatternFill {gsave /PFa [ 9 2 roll ] def
  PFa 0 get PFa 2 get 2 div add PFa 1 get PFa 3 get 2 div add translate
  PFa 2 get -2 div PFa 3 get -2 div PFa 2 get PFa 3 get Rec
  TransparentPatterns {} {gsave 1 setgray fill grestore} ifelse
  clip
  currentlinewidth 0.5 mul setlinewidth
  /PFs PFa 2 get dup mul PFa 3 get dup mul add sqrt def
  0 0 M PFa 5 get rotate PFs -2 div dup translate
  0 1 PFs PFa 4 get div 1 add floor cvi
	{PFa 4 get mul 0 M 0 PFs V} for
  0 PFa 6 get ne {
	0 1 PFs PFa 4 get div 1 add floor cvi
	{PFa 4 get mul 0 2 1 roll M PFs 0 V} for
 } if
  stroke grestore} def
%
/languagelevel where
 {pop languagelevel} {1} ifelse
 2 lt
	{/InterpretLevel1 true def}
	{/InterpretLevel1 Level1 def}
 ifelse
%
% PostScript level 2 pattern fill definitions
%
/Level2PatternFill {
/Tile8x8 {/PaintType 2 /PatternType 1 /TilingType 1 /BBox [0 0 8 8] /XStep 8 /YStep 8}
	bind def
/KeepColor {currentrgbcolor [/Pattern /DeviceRGB] setcolorspace} bind def
<< Tile8x8
 /PaintProc {0.5 setlinewidth pop 0 0 M 8 8 L 0 8 M 8 0 L stroke} 
>> matrix makepattern
/Pat1 exch def
<< Tile8x8
 /PaintProc {0.5 setlinewidth pop 0 0 M 8 8 L 0 8 M 8 0 L stroke
	0 4 M 4 8 L 8 4 L 4 0 L 0 4 L stroke}
>> matrix makepattern
/Pat2 exch def
<< Tile8x8
 /PaintProc {0.5 setlinewidth pop 0 0 M 0 8 L
	8 8 L 8 0 L 0 0 L fill}
>> matrix makepattern
/Pat3 exch def
<< Tile8x8
 /PaintProc {0.5 setlinewidth pop -4 8 M 8 -4 L
	0 12 M 12 0 L stroke}
>> matrix makepattern
/Pat4 exch def
<< Tile8x8
 /PaintProc {0.5 setlinewidth pop -4 0 M 8 12 L
	0 -4 M 12 8 L stroke}
>> matrix makepattern
/Pat5 exch def
<< Tile8x8
 /PaintProc {0.5 setlinewidth pop -2 8 M 4 -4 L
	0 12 M 8 -4 L 4 12 M 10 0 L stroke}
>> matrix makepattern
/Pat6 exch def
<< Tile8x8
 /PaintProc {0.5 setlinewidth pop -2 0 M 4 12 L
	0 -4 M 8 12 L 4 -4 M 10 8 L stroke}
>> matrix makepattern
/Pat7 exch def
<< Tile8x8
 /PaintProc {0.5 setlinewidth pop 8 -2 M -4 4 L
	12 0 M -4 8 L 12 4 M 0 10 L stroke}
>> matrix makepattern
/Pat8 exch def
<< Tile8x8
 /PaintProc {0.5 setlinewidth pop 0 -2 M 12 4 L
	-4 0 M 12 8 L -4 4 M 8 10 L stroke}
>> matrix makepattern
/Pat9 exch def
/Pattern1 {PatternBgnd KeepColor Pat1 setpattern} bind def
/Pattern2 {PatternBgnd KeepColor Pat2 setpattern} bind def
/Pattern3 {PatternBgnd KeepColor Pat3 setpattern} bind def
/Pattern4 {PatternBgnd KeepColor Landscape {Pat5} {Pat4} ifelse setpattern} bind def
/Pattern5 {PatternBgnd KeepColor Landscape {Pat4} {Pat5} ifelse setpattern} bind def
/Pattern6 {PatternBgnd KeepColor Landscape {Pat9} {Pat6} ifelse setpattern} bind def
/Pattern7 {PatternBgnd KeepColor Landscape {Pat8} {Pat7} ifelse setpattern} bind def
} def
%
%
%End of PostScript Level 2 code
%
/PatternBgnd {
  TransparentPatterns {} {gsave 1 setgray fill grestore} ifelse
} def
%
% Substitute for Level 2 pattern fill codes with
% grayscale if Level 2 support is not selected.
%
/Level1PatternFill {
/Pattern1 {0.250 Density} bind def
/Pattern2 {0.500 Density} bind def
/Pattern3 {0.750 Density} bind def
/Pattern4 {0.125 Density} bind def
/Pattern5 {0.375 Density} bind def
/Pattern6 {0.625 Density} bind def
/Pattern7 {0.875 Density} bind def
} def
%
% Now test for support of Level 2 code
%
Level1 {Level1PatternFill} {Level2PatternFill} ifelse
%
/Symbol-Oblique /Symbol findfont [1 0 .167 1 0 0] makefont
dup length dict begin {1 index /FID eq {pop pop} {def} ifelse} forall
currentdict end definefont pop
Level1 SuppressPDFMark or 
{} {
/SDict 10 dict def
systemdict /pdfmark known not {
  userdict /pdfmark systemdict /cleartomark get put
} if
SDict begin [
  /Title (plot0.4.eps)
  /Subject (gnuplot plot)
  /Creator (gnuplot 4.6 patchlevel 4)
  /Author (peter)
%  /Producer (gnuplot)
%  /Keywords ()
  /CreationDate (Fri Dec 11 12:43:20 2015)
  /DOCINFO pdfmark
end
} ifelse
end
%%EndProlog
%%Page: 1 1
gnudict begin
gsave
doclip
50 50 translate
0.100 0.100 scale
90 rotate
0 -5040 translate
0 setgray
newpath
(Helvetica) findfont 140 scalefont setfont
BackgroundColor 0 lt 3 1 roll 0 lt exch 0 lt or or not {gsave BackgroundColor C clippath fill grestore} if
1.000 UL
LTb
1689 448 M
63 0 V
4108 0 R
-63 0 V
-4192 0 R
(-70) Rshow
1.000 UL
LTb
1689 865 M
63 0 V
4108 0 R
-63 0 V
-4192 0 R
(-60) Rshow
1.000 UL
LTb
1689 1282 M
63 0 V
4108 0 R
-63 0 V
-4192 0 R
(-50) Rshow
1.000 UL
LTb
1689 1699 M
63 0 V
4108 0 R
-63 0 V
-4192 0 R
(-40) Rshow
1.000 UL
LTb
1689 2116 M
63 0 V
4108 0 R
-63 0 V
-4192 0 R
(-30) Rshow
1.000 UL
LTb
1689 2534 M
63 0 V
4108 0 R
-63 0 V
-4192 0 R
(-20) Rshow
1.000 UL
LTb
1689 2951 M
63 0 V
4108 0 R
-63 0 V
-4192 0 R
(-10) Rshow
1.000 UL
LTb
1689 3368 M
63 0 V
4108 0 R
-63 0 V
-4192 0 R
( 0) Rshow
1.000 UL
LTb
1689 3785 M
63 0 V
4108 0 R
-63 0 V
-4192 0 R
( 10) Rshow
1.000 UL
LTb
1689 4202 M
63 0 V
4108 0 R
-63 0 V
-4192 0 R
( 20) Rshow
1.000 UL
LTb
1689 4619 M
63 0 V
4108 0 R
-63 0 V
-4192 0 R
( 30) Rshow
1.000 UL
LTb
1689 448 M
0 63 V
0 4108 R
0 -63 V
0 -4248 R
( 0) Cshow
1.000 UL
LTb
2384 448 M
0 63 V
0 4108 R
0 -63 V
0 -4248 R
( 2) Cshow
1.000 UL
LTb
3079 448 M
0 63 V
0 4108 R
0 -63 V
0 -4248 R
( 4) Cshow
1.000 UL
LTb
3775 448 M
0 63 V
0 4108 R
0 -63 V
0 -4248 R
( 6) Cshow
1.000 UL
LTb
4470 448 M
0 63 V
0 4108 R
0 -63 V
0 -4248 R
( 8) Cshow
1.000 UL
LTb
5165 448 M
0 63 V
0 4108 R
0 -63 V
0 -4248 R
( 10) Cshow
1.000 UL
LTb
5860 448 M
0 63 V
0 4108 R
0 -63 V
0 -4248 R
( 12) Cshow
1.000 UL
LTb
1.000 UL
LTb
1689 4619 N
0 -4171 V
4171 0 V
0 4171 V
-4171 0 V
Z stroke
LCb setrgbcolor
1199 2533 M
currentpoint gsave translate -270 rotate 0 0 M
(y axis) Cshow
grestore
LTb
LCb setrgbcolor
3774 98 M
(x axis) Cshow
LTb
3774 4829 M
(Function at time 0.4) Cshow
1.000 UP
1.000 UL
LTb
% Begin plot #1
1.000 UP
1.000 UL
LT0
1689 3347 Pls
1702 3345 Pls
1715 3343 Pls
1728 3340 Pls
1741 3338 Pls
1754 3336 Pls
1767 3333 Pls
1780 3331 Pls
1793 3328 Pls
1806 3325 Pls
1819 3323 Pls
1832 3320 Pls
1845 3317 Pls
1858 3314 Pls
1871 3311 Pls
1884 3308 Pls
1897 3305 Pls
1910 3301 Pls
1923 3298 Pls
1936 3295 Pls
1949 3291 Pls
1962 3288 Pls
1975 3284 Pls
1988 3280 Pls
2001 3276 Pls
2014 3273 Pls
2027 3269 Pls
2040 3265 Pls
2053 3261 Pls
2066 3257 Pls
2079 3253 Pls
2092 3249 Pls
2105 3245 Pls
2118 3241 Pls
2131 3237 Pls
2144 3233 Pls
2157 3229 Pls
2170 3225 Pls
2183 3221 Pls
2196 3217 Pls
2209 3213 Pls
2222 3209 Pls
2235 3205 Pls
2248 3201 Pls
2261 3197 Pls
2274 3194 Pls
2287 3190 Pls
2300 3187 Pls
2313 3183 Pls
2326 3180 Pls
2339 3177 Pls
2352 3174 Pls
2365 3171 Pls
2378 3168 Pls
2391 3165 Pls
2404 3163 Pls
2417 3161 Pls
2430 3159 Pls
2443 3157 Pls
2456 3155 Pls
2469 3154 Pls
2482 3153 Pls
2495 3152 Pls
2508 3151 Pls
2521 3151 Pls
2534 3151 Pls
2547 3151 Pls
2560 3151 Pls
2573 3152 Pls
2586 3153 Pls
2599 3154 Pls
2612 3156 Pls
2625 3158 Pls
2638 3160 Pls
2651 3163 Pls
2664 3166 Pls
2677 3169 Pls
2690 3173 Pls
2703 3177 Pls
2716 3182 Pls
2729 3187 Pls
2741 3192 Pls
2754 3197 Pls
2767 3204 Pls
2780 3210 Pls
2793 3217 Pls
2806 3224 Pls
2819 3232 Pls
2832 3240 Pls
2845 3248 Pls
2858 3257 Pls
2871 3267 Pls
2884 3277 Pls
2897 3287 Pls
2910 3297 Pls
2923 3308 Pls
2936 3320 Pls
2949 3332 Pls
2962 3344 Pls
2975 3356 Pls
2988 3369 Pls
3001 3383 Pls
3014 3397 Pls
3027 3411 Pls
3040 3425 Pls
3053 3440 Pls
3066 3456 Pls
3079 3471 Pls
3092 3487 Pls
3105 3504 Pls
3118 3520 Pls
3131 3537 Pls
3144 3554 Pls
3157 3572 Pls
3170 3589 Pls
3183 3608 Pls
3196 3626 Pls
3209 3644 Pls
3222 3663 Pls
3235 3682 Pls
3248 3701 Pls
3261 3720 Pls
3274 3739 Pls
3287 3759 Pls
3300 3778 Pls
3313 3798 Pls
3326 3818 Pls
3339 3837 Pls
3352 3857 Pls
3365 3877 Pls
3378 3897 Pls
3391 3916 Pls
3404 3936 Pls
3417 3955 Pls
3430 3975 Pls
3443 3994 Pls
3456 4013 Pls
3469 4032 Pls
3482 4051 Pls
3495 4069 Pls
3508 4087 Pls
3521 4105 Pls
3534 4123 Pls
3547 4140 Pls
3560 4157 Pls
3573 4174 Pls
3586 4190 Pls
3599 4205 Pls
3612 4220 Pls
3625 4235 Pls
3638 4249 Pls
3651 4263 Pls
3664 4276 Pls
3677 4288 Pls
3690 4300 Pls
3703 4311 Pls
3716 4322 Pls
3729 4332 Pls
3742 4341 Pls
3755 4349 Pls
3768 4357 Pls
3781 4364 Pls
3794 4370 Pls
3807 4375 Pls
3820 4379 Pls
3833 4383 Pls
3846 4385 Pls
3859 4387 Pls
3872 4388 Pls
3885 4387 Pls
3898 4386 Pls
3911 4384 Pls
3924 4381 Pls
3937 4377 Pls
3950 4371 Pls
3963 4365 Pls
3976 4358 Pls
3989 4349 Pls
4002 4340 Pls
4015 4329 Pls
4028 4317 Pls
4041 4305 Pls
4054 4291 Pls
4067 4276 Pls
4080 4259 Pls
4093 4242 Pls
4106 4224 Pls
4119 4204 Pls
4132 4183 Pls
4145 4161 Pls
4158 4138 Pls
4171 4114 Pls
4184 4089 Pls
4197 4063 Pls
4210 4035 Pls
4223 4007 Pls
4236 3977 Pls
4249 3946 Pls
4262 3914 Pls
4275 3881 Pls
4288 3847 Pls
4301 3812 Pls
4314 3776 Pls
4327 3739 Pls
4340 3701 Pls
4353 3662 Pls
4366 3622 Pls
4379 3581 Pls
4392 3539 Pls
4405 3497 Pls
4418 3453 Pls
4431 3409 Pls
4444 3364 Pls
4457 3318 Pls
4470 3272 Pls
4483 3224 Pls
4496 3176 Pls
4509 3128 Pls
4522 3079 Pls
4535 3029 Pls
4548 2979 Pls
4561 2928 Pls
4574 2877 Pls
4587 2826 Pls
4600 2774 Pls
4613 2722 Pls
4626 2669 Pls
4639 2617 Pls
4652 2564 Pls
4665 2511 Pls
4678 2458 Pls
4691 2405 Pls
4704 2352 Pls
4717 2299 Pls
4730 2246 Pls
4743 2194 Pls
4756 2141 Pls
4769 2089 Pls
4782 2038 Pls
4795 1986 Pls
4808 1935 Pls
4820 1885 Pls
4833 1835 Pls
4846 1785 Pls
4859 1737 Pls
4872 1689 Pls
4885 1641 Pls
4898 1595 Pls
4911 1549 Pls
4924 1505 Pls
4937 1461 Pls
4950 1418 Pls
4963 1377 Pls
4976 1336 Pls
4989 1297 Pls
5002 1259 Pls
5015 1222 Pls
5028 1186 Pls
5041 1152 Pls
5054 1120 Pls
5067 1089 Pls
5080 1059 Pls
5093 1031 Pls
5106 1005 Pls
5119 980 Pls
5132 957 Pls
5145 935 Pls
5158 916 Pls
5171 898 Pls
5184 883 Pls
5197 869 Pls
5210 857 Pls
5223 847 Pls
5236 839 Pls
5249 834 Pls
5262 830 Pls
5275 828 Pls
5288 829 Pls
5301 832 Pls
5314 837 Pls
5327 844 Pls
5340 854 Pls
5353 865 Pls
5366 880 Pls
5379 896 Pls
5392 915 Pls
5405 936 Pls
5418 959 Pls
5431 985 Pls
5444 1013 Pls
5457 1043 Pls
5470 1076 Pls
5483 1111 Pls
5496 1149 Pls
5509 1189 Pls
5522 1231 Pls
5535 1276 Pls
5548 1323 Pls
5561 1372 Pls
5574 1424 Pls
5587 1477 Pls
5600 1534 Pls
5613 1592 Pls
5626 1653 Pls
5639 1715 Pls
5652 1780 Pls
5665 1847 Pls
5678 1917 Pls
5691 1988 Pls
5704 2061 Pls
5717 2136 Pls
5730 2214 Pls
5743 2293 Pls
5756 2374 Pls
5769 2457 Pls
5782 2541 Pls
5795 2627 Pls
5808 2715 Pls
5821 2805 Pls
5834 2896 Pls
5847 2988 Pls
% End plot #1
1.000 UL
LTb
1689 4619 N
0 -4171 V
4171 0 V
0 4171 V
-4171 0 V
Z stroke
1.000 UP
1.000 UL
LTb
stroke
grestore
end
showpage
%%Trailer
%%DocumentFonts: Helvetica
%%Pages: 1
