%!PS-Adobe-2.0
%%Title: plot0.3.eps
%%Creator: gnuplot 4.6 patchlevel 4
%%CreationDate: Fri Dec 11 12:43:20 2015
%%DocumentFonts: (atend)
%%BoundingBox: 50 50 554 770
%%Orientation: Landscape
%%Pages: (atend)
%%EndComments
%%BeginProlog
/gnudict 256 dict def
gnudict begin
%
% The following true/false flags may be edited by hand if desired.
% The unit line width and grayscale image gamma correction may also be changed.
%
/Color false def
/Blacktext false def
/Solid false def
/Dashlength 1 def
/Landscape true def
/Level1 false def
/Rounded false def
/ClipToBoundingBox false def
/SuppressPDFMark false def
/TransparentPatterns false def
/gnulinewidth 5.000 def
/userlinewidth gnulinewidth def
/Gamma 1.0 def
/BackgroundColor {-1.000 -1.000 -1.000} def
%
/vshift -46 def
/dl1 {
  10.0 Dashlength mul mul
  Rounded { currentlinewidth 0.75 mul sub dup 0 le { pop 0.01 } if } if
} def
/dl2 {
  10.0 Dashlength mul mul
  Rounded { currentlinewidth 0.75 mul add } if
} def
/hpt_ 31.5 def
/vpt_ 31.5 def
/hpt hpt_ def
/vpt vpt_ def
/doclip {
  ClipToBoundingBox {
    newpath 50 50 moveto 554 50 lineto 554 770 lineto 50 770 lineto closepath
    clip
  } if
} def
%
% Gnuplot Prolog Version 4.6 (September 2012)
%
%/SuppressPDFMark true def
%
/M {moveto} bind def
/L {lineto} bind def
/R {rmoveto} bind def
/V {rlineto} bind def
/N {newpath moveto} bind def
/Z {closepath} bind def
/C {setrgbcolor} bind def
/f {rlineto fill} bind def
/g {setgray} bind def
/Gshow {show} def   % May be redefined later in the file to support UTF-8
/vpt2 vpt 2 mul def
/hpt2 hpt 2 mul def
/Lshow {currentpoint stroke M 0 vshift R 
	Blacktext {gsave 0 setgray show grestore} {show} ifelse} def
/Rshow {currentpoint stroke M dup stringwidth pop neg vshift R
	Blacktext {gsave 0 setgray show grestore} {show} ifelse} def
/Cshow {currentpoint stroke M dup stringwidth pop -2 div vshift R 
	Blacktext {gsave 0 setgray show grestore} {show} ifelse} def
/UP {dup vpt_ mul /vpt exch def hpt_ mul /hpt exch def
  /hpt2 hpt 2 mul def /vpt2 vpt 2 mul def} def
/DL {Color {setrgbcolor Solid {pop []} if 0 setdash}
 {pop pop pop 0 setgray Solid {pop []} if 0 setdash} ifelse} def
/BL {stroke userlinewidth 2 mul setlinewidth
	Rounded {1 setlinejoin 1 setlinecap} if} def
/AL {stroke userlinewidth 2 div setlinewidth
	Rounded {1 setlinejoin 1 setlinecap} if} def
/UL {dup gnulinewidth mul /userlinewidth exch def
	dup 1 lt {pop 1} if 10 mul /udl exch def} def
/PL {stroke userlinewidth setlinewidth
	Rounded {1 setlinejoin 1 setlinecap} if} def
3.8 setmiterlimit
% Default Line colors
/LCw {1 1 1} def
/LCb {0 0 0} def
/LCa {0 0 0} def
/LC0 {1 0 0} def
/LC1 {0 1 0} def
/LC2 {0 0 1} def
/LC3 {1 0 1} def
/LC4 {0 1 1} def
/LC5 {1 1 0} def
/LC6 {0 0 0} def
/LC7 {1 0.3 0} def
/LC8 {0.5 0.5 0.5} def
% Default Line Types
/LTw {PL [] 1 setgray} def
/LTb {BL [] LCb DL} def
/LTa {AL [1 udl mul 2 udl mul] 0 setdash LCa setrgbcolor} def
/LT0 {PL [] LC0 DL} def
/LT1 {PL [4 dl1 2 dl2] LC1 DL} def
/LT2 {PL [2 dl1 3 dl2] LC2 DL} def
/LT3 {PL [1 dl1 1.5 dl2] LC3 DL} def
/LT4 {PL [6 dl1 2 dl2 1 dl1 2 dl2] LC4 DL} def
/LT5 {PL [3 dl1 3 dl2 1 dl1 3 dl2] LC5 DL} def
/LT6 {PL [2 dl1 2 dl2 2 dl1 6 dl2] LC6 DL} def
/LT7 {PL [1 dl1 2 dl2 6 dl1 2 dl2 1 dl1 2 dl2] LC7 DL} def
/LT8 {PL [2 dl1 2 dl2 2 dl1 2 dl2 2 dl1 2 dl2 2 dl1 4 dl2] LC8 DL} def
/Pnt {stroke [] 0 setdash gsave 1 setlinecap M 0 0 V stroke grestore} def
/Dia {stroke [] 0 setdash 2 copy vpt add M
  hpt neg vpt neg V hpt vpt neg V
  hpt vpt V hpt neg vpt V closepath stroke
  Pnt} def
/Pls {stroke [] 0 setdash vpt sub M 0 vpt2 V
  currentpoint stroke M
  hpt neg vpt neg R hpt2 0 V stroke
 } def
/Box {stroke [] 0 setdash 2 copy exch hpt sub exch vpt add M
  0 vpt2 neg V hpt2 0 V 0 vpt2 V
  hpt2 neg 0 V closepath stroke
  Pnt} def
/Crs {stroke [] 0 setdash exch hpt sub exch vpt add M
  hpt2 vpt2 neg V currentpoint stroke M
  hpt2 neg 0 R hpt2 vpt2 V stroke} def
/TriU {stroke [] 0 setdash 2 copy vpt 1.12 mul add M
  hpt neg vpt -1.62 mul V
  hpt 2 mul 0 V
  hpt neg vpt 1.62 mul V closepath stroke
  Pnt} def
/Star {2 copy Pls Crs} def
/BoxF {stroke [] 0 setdash exch hpt sub exch vpt add M
  0 vpt2 neg V hpt2 0 V 0 vpt2 V
  hpt2 neg 0 V closepath fill} def
/TriUF {stroke [] 0 setdash vpt 1.12 mul add M
  hpt neg vpt -1.62 mul V
  hpt 2 mul 0 V
  hpt neg vpt 1.62 mul V closepath fill} def
/TriD {stroke [] 0 setdash 2 copy vpt 1.12 mul sub M
  hpt neg vpt 1.62 mul V
  hpt 2 mul 0 V
  hpt neg vpt -1.62 mul V closepath stroke
  Pnt} def
/TriDF {stroke [] 0 setdash vpt 1.12 mul sub M
  hpt neg vpt 1.62 mul V
  hpt 2 mul 0 V
  hpt neg vpt -1.62 mul V closepath fill} def
/DiaF {stroke [] 0 setdash vpt add M
  hpt neg vpt neg V hpt vpt neg V
  hpt vpt V hpt neg vpt V closepath fill} def
/Pent {stroke [] 0 setdash 2 copy gsave
  translate 0 hpt M 4 {72 rotate 0 hpt L} repeat
  closepath stroke grestore Pnt} def
/PentF {stroke [] 0 setdash gsave
  translate 0 hpt M 4 {72 rotate 0 hpt L} repeat
  closepath fill grestore} def
/Circle {stroke [] 0 setdash 2 copy
  hpt 0 360 arc stroke Pnt} def
/CircleF {stroke [] 0 setdash hpt 0 360 arc fill} def
/C0 {BL [] 0 setdash 2 copy moveto vpt 90 450 arc} bind def
/C1 {BL [] 0 setdash 2 copy moveto
	2 copy vpt 0 90 arc closepath fill
	vpt 0 360 arc closepath} bind def
/C2 {BL [] 0 setdash 2 copy moveto
	2 copy vpt 90 180 arc closepath fill
	vpt 0 360 arc closepath} bind def
/C3 {BL [] 0 setdash 2 copy moveto
	2 copy vpt 0 180 arc closepath fill
	vpt 0 360 arc closepath} bind def
/C4 {BL [] 0 setdash 2 copy moveto
	2 copy vpt 180 270 arc closepath fill
	vpt 0 360 arc closepath} bind def
/C5 {BL [] 0 setdash 2 copy moveto
	2 copy vpt 0 90 arc
	2 copy moveto
	2 copy vpt 180 270 arc closepath fill
	vpt 0 360 arc} bind def
/C6 {BL [] 0 setdash 2 copy moveto
	2 copy vpt 90 270 arc closepath fill
	vpt 0 360 arc closepath} bind def
/C7 {BL [] 0 setdash 2 copy moveto
	2 copy vpt 0 270 arc closepath fill
	vpt 0 360 arc closepath} bind def
/C8 {BL [] 0 setdash 2 copy moveto
	2 copy vpt 270 360 arc closepath fill
	vpt 0 360 arc closepath} bind def
/C9 {BL [] 0 setdash 2 copy moveto
	2 copy vpt 270 450 arc closepath fill
	vpt 0 360 arc closepath} bind def
/C10 {BL [] 0 setdash 2 copy 2 copy moveto vpt 270 360 arc closepath fill
	2 copy moveto
	2 copy vpt 90 180 arc closepath fill
	vpt 0 360 arc closepath} bind def
/C11 {BL [] 0 setdash 2 copy moveto
	2 copy vpt 0 180 arc closepath fill
	2 copy moveto
	2 copy vpt 270 360 arc closepath fill
	vpt 0 360 arc closepath} bind def
/C12 {BL [] 0 setdash 2 copy moveto
	2 copy vpt 180 360 arc closepath fill
	vpt 0 360 arc closepath} bind def
/C13 {BL [] 0 setdash 2 copy moveto
	2 copy vpt 0 90 arc closepath fill
	2 copy moveto
	2 copy vpt 180 360 arc closepath fill
	vpt 0 360 arc closepath} bind def
/C14 {BL [] 0 setdash 2 copy moveto
	2 copy vpt 90 360 arc closepath fill
	vpt 0 360 arc} bind def
/C15 {BL [] 0 setdash 2 copy vpt 0 360 arc closepath fill
	vpt 0 360 arc closepath} bind def
/Rec {newpath 4 2 roll moveto 1 index 0 rlineto 0 exch rlineto
	neg 0 rlineto closepath} bind def
/Square {dup Rec} bind def
/Bsquare {vpt sub exch vpt sub exch vpt2 Square} bind def
/S0 {BL [] 0 setdash 2 copy moveto 0 vpt rlineto BL Bsquare} bind def
/S1 {BL [] 0 setdash 2 copy vpt Square fill Bsquare} bind def
/S2 {BL [] 0 setdash 2 copy exch vpt sub exch vpt Square fill Bsquare} bind def
/S3 {BL [] 0 setdash 2 copy exch vpt sub exch vpt2 vpt Rec fill Bsquare} bind def
/S4 {BL [] 0 setdash 2 copy exch vpt sub exch vpt sub vpt Square fill Bsquare} bind def
/S5 {BL [] 0 setdash 2 copy 2 copy vpt Square fill
	exch vpt sub exch vpt sub vpt Square fill Bsquare} bind def
/S6 {BL [] 0 setdash 2 copy exch vpt sub exch vpt sub vpt vpt2 Rec fill Bsquare} bind def
/S7 {BL [] 0 setdash 2 copy exch vpt sub exch vpt sub vpt vpt2 Rec fill
	2 copy vpt Square fill Bsquare} bind def
/S8 {BL [] 0 setdash 2 copy vpt sub vpt Square fill Bsquare} bind def
/S9 {BL [] 0 setdash 2 copy vpt sub vpt vpt2 Rec fill Bsquare} bind def
/S10 {BL [] 0 setdash 2 copy vpt sub vpt Square fill 2 copy exch vpt sub exch vpt Square fill
	Bsquare} bind def
/S11 {BL [] 0 setdash 2 copy vpt sub vpt Square fill 2 copy exch vpt sub exch vpt2 vpt Rec fill
	Bsquare} bind def
/S12 {BL [] 0 setdash 2 copy exch vpt sub exch vpt sub vpt2 vpt Rec fill Bsquare} bind def
/S13 {BL [] 0 setdash 2 copy exch vpt sub exch vpt sub vpt2 vpt Rec fill
	2 copy vpt Square fill Bsquare} bind def
/S14 {BL [] 0 setdash 2 copy exch vpt sub exch vpt sub vpt2 vpt Rec fill
	2 copy exch vpt sub exch vpt Square fill Bsquare} bind def
/S15 {BL [] 0 setdash 2 copy Bsquare fill Bsquare} bind def
/D0 {gsave translate 45 rotate 0 0 S0 stroke grestore} bind def
/D1 {gsave translate 45 rotate 0 0 S1 stroke grestore} bind def
/D2 {gsave translate 45 rotate 0 0 S2 stroke grestore} bind def
/D3 {gsave translate 45 rotate 0 0 S3 stroke grestore} bind def
/D4 {gsave translate 45 rotate 0 0 S4 stroke grestore} bind def
/D5 {gsave translate 45 rotate 0 0 S5 stroke grestore} bind def
/D6 {gsave translate 45 rotate 0 0 S6 stroke grestore} bind def
/D7 {gsave translate 45 rotate 0 0 S7 stroke grestore} bind def
/D8 {gsave translate 45 rotate 0 0 S8 stroke grestore} bind def
/D9 {gsave translate 45 rotate 0 0 S9 stroke grestore} bind def
/D10 {gsave translate 45 rotate 0 0 S10 stroke grestore} bind def
/D11 {gsave translate 45 rotate 0 0 S11 stroke grestore} bind def
/D12 {gsave translate 45 rotate 0 0 S12 stroke grestore} bind def
/D13 {gsave translate 45 rotate 0 0 S13 stroke grestore} bind def
/D14 {gsave translate 45 rotate 0 0 S14 stroke grestore} bind def
/D15 {gsave translate 45 rotate 0 0 S15 stroke grestore} bind def
/DiaE {stroke [] 0 setdash vpt add M
  hpt neg vpt neg V hpt vpt neg V
  hpt vpt V hpt neg vpt V closepath stroke} def
/BoxE {stroke [] 0 setdash exch hpt sub exch vpt add M
  0 vpt2 neg V hpt2 0 V 0 vpt2 V
  hpt2 neg 0 V closepath stroke} def
/TriUE {stroke [] 0 setdash vpt 1.12 mul add M
  hpt neg vpt -1.62 mul V
  hpt 2 mul 0 V
  hpt neg vpt 1.62 mul V closepath stroke} def
/TriDE {stroke [] 0 setdash vpt 1.12 mul sub M
  hpt neg vpt 1.62 mul V
  hpt 2 mul 0 V
  hpt neg vpt -1.62 mul V closepath stroke} def
/PentE {stroke [] 0 setdash gsave
  translate 0 hpt M 4 {72 rotate 0 hpt L} repeat
  closepath stroke grestore} def
/CircE {stroke [] 0 setdash 
  hpt 0 360 arc stroke} def
/Opaque {gsave closepath 1 setgray fill grestore 0 setgray closepath} def
/DiaW {stroke [] 0 setdash vpt add M
  hpt neg vpt neg V hpt vpt neg V
  hpt vpt V hpt neg vpt V Opaque stroke} def
/BoxW {stroke [] 0 setdash exch hpt sub exch vpt add M
  0 vpt2 neg V hpt2 0 V 0 vpt2 V
  hpt2 neg 0 V Opaque stroke} def
/TriUW {stroke [] 0 setdash vpt 1.12 mul add M
  hpt neg vpt -1.62 mul V
  hpt 2 mul 0 V
  hpt neg vpt 1.62 mul V Opaque stroke} def
/TriDW {stroke [] 0 setdash vpt 1.12 mul sub M
  hpt neg vpt 1.62 mul V
  hpt 2 mul 0 V
  hpt neg vpt -1.62 mul V Opaque stroke} def
/PentW {stroke [] 0 setdash gsave
  translate 0 hpt M 4 {72 rotate 0 hpt L} repeat
  Opaque stroke grestore} def
/CircW {stroke [] 0 setdash 
  hpt 0 360 arc Opaque stroke} def
/BoxFill {gsave Rec 1 setgray fill grestore} def
/Density {
  /Fillden exch def
  currentrgbcolor
  /ColB exch def /ColG exch def /ColR exch def
  /ColR ColR Fillden mul Fillden sub 1 add def
  /ColG ColG Fillden mul Fillden sub 1 add def
  /ColB ColB Fillden mul Fillden sub 1 add def
  ColR ColG ColB setrgbcolor} def
/BoxColFill {gsave Rec PolyFill} def
/PolyFill {gsave Density fill grestore grestore} def
/h {rlineto rlineto rlineto gsave closepath fill grestore} bind def
%
% PostScript Level 1 Pattern Fill routine for rectangles
% Usage: x y w h s a XX PatternFill
%	x,y = lower left corner of box to be filled
%	w,h = width and height of box
%	  a = angle in degrees between lines and x-axis
%	 XX = 0/1 for no/yes cross-hatch
%
/PatternFill {gsave /PFa [ 9 2 roll ] def
  PFa 0 get PFa 2 get 2 div add PFa 1 get PFa 3 get 2 div add translate
  PFa 2 get -2 div PFa 3 get -2 div PFa 2 get PFa 3 get Rec
  TransparentPatterns {} {gsave 1 setgray fill grestore} ifelse
  clip
  currentlinewidth 0.5 mul setlinewidth
  /PFs PFa 2 get dup mul PFa 3 get dup mul add sqrt def
  0 0 M PFa 5 get rotate PFs -2 div dup translate
  0 1 PFs PFa 4 get div 1 add floor cvi
	{PFa 4 get mul 0 M 0 PFs V} for
  0 PFa 6 get ne {
	0 1 PFs PFa 4 get div 1 add floor cvi
	{PFa 4 get mul 0 2 1 roll M PFs 0 V} for
 } if
  stroke grestore} def
%
/languagelevel where
 {pop languagelevel} {1} ifelse
 2 lt
	{/InterpretLevel1 true def}
	{/InterpretLevel1 Level1 def}
 ifelse
%
% PostScript level 2 pattern fill definitions
%
/Level2PatternFill {
/Tile8x8 {/PaintType 2 /PatternType 1 /TilingType 1 /BBox [0 0 8 8] /XStep 8 /YStep 8}
	bind def
/KeepColor {currentrgbcolor [/Pattern /DeviceRGB] setcolorspace} bind def
<< Tile8x8
 /PaintProc {0.5 setlinewidth pop 0 0 M 8 8 L 0 8 M 8 0 L stroke} 
>> matrix makepattern
/Pat1 exch def
<< Tile8x8
 /PaintProc {0.5 setlinewidth pop 0 0 M 8 8 L 0 8 M 8 0 L stroke
	0 4 M 4 8 L 8 4 L 4 0 L 0 4 L stroke}
>> matrix makepattern
/Pat2 exch def
<< Tile8x8
 /PaintProc {0.5 setlinewidth pop 0 0 M 0 8 L
	8 8 L 8 0 L 0 0 L fill}
>> matrix makepattern
/Pat3 exch def
<< Tile8x8
 /PaintProc {0.5 setlinewidth pop -4 8 M 8 -4 L
	0 12 M 12 0 L stroke}
>> matrix makepattern
/Pat4 exch def
<< Tile8x8
 /PaintProc {0.5 setlinewidth pop -4 0 M 8 12 L
	0 -4 M 12 8 L stroke}
>> matrix makepattern
/Pat5 exch def
<< Tile8x8
 /PaintProc {0.5 setlinewidth pop -2 8 M 4 -4 L
	0 12 M 8 -4 L 4 12 M 10 0 L stroke}
>> matrix makepattern
/Pat6 exch def
<< Tile8x8
 /PaintProc {0.5 setlinewidth pop -2 0 M 4 12 L
	0 -4 M 8 12 L 4 -4 M 10 8 L stroke}
>> matrix makepattern
/Pat7 exch def
<< Tile8x8
 /PaintProc {0.5 setlinewidth pop 8 -2 M -4 4 L
	12 0 M -4 8 L 12 4 M 0 10 L stroke}
>> matrix makepattern
/Pat8 exch def
<< Tile8x8
 /PaintProc {0.5 setlinewidth pop 0 -2 M 12 4 L
	-4 0 M 12 8 L -4 4 M 8 10 L stroke}
>> matrix makepattern
/Pat9 exch def
/Pattern1 {PatternBgnd KeepColor Pat1 setpattern} bind def
/Pattern2 {PatternBgnd KeepColor Pat2 setpattern} bind def
/Pattern3 {PatternBgnd KeepColor Pat3 setpattern} bind def
/Pattern4 {PatternBgnd KeepColor Landscape {Pat5} {Pat4} ifelse setpattern} bind def
/Pattern5 {PatternBgnd KeepColor Landscape {Pat4} {Pat5} ifelse setpattern} bind def
/Pattern6 {PatternBgnd KeepColor Landscape {Pat9} {Pat6} ifelse setpattern} bind def
/Pattern7 {PatternBgnd KeepColor Landscape {Pat8} {Pat7} ifelse setpattern} bind def
} def
%
%
%End of PostScript Level 2 code
%
/PatternBgnd {
  TransparentPatterns {} {gsave 1 setgray fill grestore} ifelse
} def
%
% Substitute for Level 2 pattern fill codes with
% grayscale if Level 2 support is not selected.
%
/Level1PatternFill {
/Pattern1 {0.250 Density} bind def
/Pattern2 {0.500 Density} bind def
/Pattern3 {0.750 Density} bind def
/Pattern4 {0.125 Density} bind def
/Pattern5 {0.375 Density} bind def
/Pattern6 {0.625 Density} bind def
/Pattern7 {0.875 Density} bind def
} def
%
% Now test for support of Level 2 code
%
Level1 {Level1PatternFill} {Level2PatternFill} ifelse
%
/Symbol-Oblique /Symbol findfont [1 0 .167 1 0 0] makefont
dup length dict begin {1 index /FID eq {pop pop} {def} ifelse} forall
currentdict end definefont pop
Level1 SuppressPDFMark or 
{} {
/SDict 10 dict def
systemdict /pdfmark known not {
  userdict /pdfmark systemdict /cleartomark get put
} if
SDict begin [
  /Title (plot0.3.eps)
  /Subject (gnuplot plot)
  /Creator (gnuplot 4.6 patchlevel 4)
  /Author (peter)
%  /Producer (gnuplot)
%  /Keywords ()
  /CreationDate (Fri Dec 11 12:43:20 2015)
  /DOCINFO pdfmark
end
} ifelse
end
%%EndProlog
%%Page: 1 1
gnudict begin
gsave
doclip
50 50 translate
0.100 0.100 scale
90 rotate
0 -5040 translate
0 setgray
newpath
(Helvetica) findfont 140 scalefont setfont
BackgroundColor 0 lt 3 1 roll 0 lt exch 0 lt or or not {gsave BackgroundColor C clippath fill grestore} if
1.000 UL
LTb
1689 448 M
63 0 V
4108 0 R
-63 0 V
-4192 0 R
(-60) Rshow
1.000 UL
LTb
1689 827 M
63 0 V
4108 0 R
-63 0 V
-4192 0 R
(-50) Rshow
1.000 UL
LTb
1689 1206 M
63 0 V
4108 0 R
-63 0 V
-4192 0 R
(-40) Rshow
1.000 UL
LTb
1689 1586 M
63 0 V
4108 0 R
-63 0 V
-4192 0 R
(-30) Rshow
1.000 UL
LTb
1689 1965 M
63 0 V
4108 0 R
-63 0 V
-4192 0 R
(-20) Rshow
1.000 UL
LTb
1689 2344 M
63 0 V
4108 0 R
-63 0 V
-4192 0 R
(-10) Rshow
1.000 UL
LTb
1689 2723 M
63 0 V
4108 0 R
-63 0 V
-4192 0 R
( 0) Rshow
1.000 UL
LTb
1689 3102 M
63 0 V
4108 0 R
-63 0 V
-4192 0 R
( 10) Rshow
1.000 UL
LTb
1689 3481 M
63 0 V
4108 0 R
-63 0 V
-4192 0 R
( 20) Rshow
1.000 UL
LTb
1689 3861 M
63 0 V
4108 0 R
-63 0 V
-4192 0 R
( 30) Rshow
1.000 UL
LTb
1689 4240 M
63 0 V
4108 0 R
-63 0 V
-4192 0 R
( 40) Rshow
1.000 UL
LTb
1689 4619 M
63 0 V
4108 0 R
-63 0 V
-4192 0 R
( 50) Rshow
1.000 UL
LTb
1689 448 M
0 63 V
0 4108 R
0 -63 V
0 -4248 R
( 0) Cshow
1.000 UL
LTb
2384 448 M
0 63 V
0 4108 R
0 -63 V
0 -4248 R
( 2) Cshow
1.000 UL
LTb
3079 448 M
0 63 V
0 4108 R
0 -63 V
0 -4248 R
( 4) Cshow
1.000 UL
LTb
3775 448 M
0 63 V
0 4108 R
0 -63 V
0 -4248 R
( 6) Cshow
1.000 UL
LTb
4470 448 M
0 63 V
0 4108 R
0 -63 V
0 -4248 R
( 8) Cshow
1.000 UL
LTb
5165 448 M
0 63 V
0 4108 R
0 -63 V
0 -4248 R
( 10) Cshow
1.000 UL
LTb
5860 448 M
0 63 V
0 4108 R
0 -63 V
0 -4248 R
( 12) Cshow
1.000 UL
LTb
1.000 UL
LTb
1689 4619 N
0 -4171 V
4171 0 V
0 4171 V
-4171 0 V
Z stroke
LCb setrgbcolor
1199 2533 M
currentpoint gsave translate -270 rotate 0 0 M
(y axis) Cshow
grestore
LTb
LCb setrgbcolor
3774 98 M
(x axis) Cshow
LTb
3774 4829 M
(Function at time 0.3) Cshow
1.000 UP
1.000 UL
LTb
% Begin plot #1
1.000 UP
1.000 UL
LT0
1689 2674 Pls
1702 2672 Pls
1715 2670 Pls
1728 2669 Pls
1741 2667 Pls
1754 2665 Pls
1767 2663 Pls
1780 2661 Pls
1793 2659 Pls
1806 2657 Pls
1819 2655 Pls
1832 2653 Pls
1845 2651 Pls
1858 2649 Pls
1871 2647 Pls
1884 2645 Pls
1897 2643 Pls
1910 2641 Pls
1923 2639 Pls
1936 2636 Pls
1949 2634 Pls
1962 2632 Pls
1975 2630 Pls
1988 2628 Pls
2001 2626 Pls
2014 2625 Pls
2027 2623 Pls
2040 2621 Pls
2053 2619 Pls
2066 2618 Pls
2079 2616 Pls
2092 2614 Pls
2105 2613 Pls
2118 2612 Pls
2131 2610 Pls
2144 2609 Pls
2157 2608 Pls
2170 2607 Pls
2183 2607 Pls
2196 2606 Pls
2209 2605 Pls
2222 2605 Pls
2235 2605 Pls
2248 2605 Pls
2261 2605 Pls
2274 2605 Pls
2287 2606 Pls
2300 2607 Pls
2313 2607 Pls
2326 2608 Pls
2339 2610 Pls
2352 2611 Pls
2365 2613 Pls
2378 2615 Pls
2391 2617 Pls
2404 2620 Pls
2417 2622 Pls
2430 2625 Pls
2443 2628 Pls
2456 2632 Pls
2469 2635 Pls
2482 2639 Pls
2495 2644 Pls
2508 2648 Pls
2521 2653 Pls
2534 2658 Pls
2547 2663 Pls
2560 2669 Pls
2573 2675 Pls
2586 2681 Pls
2599 2687 Pls
2612 2694 Pls
2625 2701 Pls
2638 2708 Pls
2651 2716 Pls
2664 2724 Pls
2677 2732 Pls
2690 2740 Pls
2703 2749 Pls
2716 2758 Pls
2729 2767 Pls
2741 2777 Pls
2754 2787 Pls
2767 2797 Pls
2780 2807 Pls
2793 2818 Pls
2806 2829 Pls
2819 2840 Pls
2832 2851 Pls
2845 2862 Pls
2858 2874 Pls
2871 2886 Pls
2884 2898 Pls
2897 2910 Pls
2910 2923 Pls
2923 2935 Pls
2936 2948 Pls
2949 2961 Pls
2962 2974 Pls
2975 2987 Pls
2988 3000 Pls
3001 3013 Pls
3014 3027 Pls
3027 3040 Pls
3040 3054 Pls
3053 3067 Pls
3066 3081 Pls
3079 3094 Pls
3092 3108 Pls
3105 3121 Pls
3118 3135 Pls
3131 3148 Pls
3144 3162 Pls
3157 3175 Pls
3170 3188 Pls
3183 3201 Pls
3196 3214 Pls
3209 3226 Pls
3222 3239 Pls
3235 3251 Pls
3248 3263 Pls
3261 3274 Pls
3274 3286 Pls
3287 3297 Pls
3300 3308 Pls
3313 3319 Pls
3326 3329 Pls
3339 3339 Pls
3352 3348 Pls
3365 3357 Pls
3378 3366 Pls
3391 3374 Pls
3404 3382 Pls
3417 3389 Pls
3430 3396 Pls
3443 3402 Pls
3456 3408 Pls
3469 3413 Pls
3482 3417 Pls
3495 3421 Pls
3508 3425 Pls
3521 3428 Pls
3534 3430 Pls
3547 3431 Pls
3560 3432 Pls
3573 3432 Pls
3586 3432 Pls
3599 3430 Pls
3612 3428 Pls
3625 3426 Pls
3638 3422 Pls
3651 3418 Pls
3664 3413 Pls
3677 3407 Pls
3690 3400 Pls
3703 3393 Pls
3716 3385 Pls
3729 3376 Pls
3742 3366 Pls
3755 3355 Pls
3768 3344 Pls
3781 3332 Pls
3794 3318 Pls
3807 3304 Pls
3820 3289 Pls
3833 3274 Pls
3846 3257 Pls
3859 3240 Pls
3872 3221 Pls
3885 3202 Pls
3898 3182 Pls
3911 3161 Pls
3924 3140 Pls
3937 3117 Pls
3950 3094 Pls
3963 3070 Pls
3976 3045 Pls
3989 3019 Pls
4002 2993 Pls
4015 2965 Pls
4028 2937 Pls
4041 2909 Pls
4054 2879 Pls
4067 2849 Pls
4080 2818 Pls
4093 2787 Pls
4106 2754 Pls
4119 2721 Pls
4132 2688 Pls
4145 2654 Pls
4158 2619 Pls
4171 2584 Pls
4184 2548 Pls
4197 2512 Pls
4210 2476 Pls
4223 2439 Pls
4236 2401 Pls
4249 2363 Pls
4262 2325 Pls
4275 2286 Pls
4288 2247 Pls
4301 2208 Pls
4314 2169 Pls
4327 2130 Pls
4340 2090 Pls
4353 2050 Pls
4366 2010 Pls
4379 1970 Pls
4392 1930 Pls
4405 1891 Pls
4418 1851 Pls
4431 1811 Pls
4444 1771 Pls
4457 1732 Pls
4470 1693 Pls
4483 1654 Pls
4496 1616 Pls
4509 1577 Pls
4522 1540 Pls
4535 1502 Pls
4548 1465 Pls
4561 1429 Pls
4574 1393 Pls
4587 1358 Pls
4600 1323 Pls
4613 1289 Pls
4626 1256 Pls
4639 1224 Pls
4652 1192 Pls
4665 1161 Pls
4678 1132 Pls
4691 1103 Pls
4704 1075 Pls
4717 1048 Pls
4730 1022 Pls
4743 997 Pls
4756 974 Pls
4769 951 Pls
4782 930 Pls
4795 910 Pls
4808 891 Pls
4820 874 Pls
4833 858 Pls
4846 843 Pls
4859 830 Pls
4872 818 Pls
4885 808 Pls
4898 799 Pls
4911 792 Pls
4924 787 Pls
4937 783 Pls
4950 780 Pls
4963 780 Pls
4976 781 Pls
4989 783 Pls
5002 788 Pls
5015 794 Pls
5028 802 Pls
5041 811 Pls
5054 823 Pls
5067 836 Pls
5080 851 Pls
5093 868 Pls
5106 887 Pls
5119 908 Pls
5132 930 Pls
5145 954 Pls
5158 980 Pls
5171 1009 Pls
5184 1038 Pls
5197 1070 Pls
5210 1104 Pls
5223 1139 Pls
5236 1177 Pls
5249 1216 Pls
5262 1257 Pls
5275 1299 Pls
5288 1344 Pls
5301 1390 Pls
5314 1438 Pls
5327 1488 Pls
5340 1540 Pls
5353 1593 Pls
5366 1648 Pls
5379 1704 Pls
5392 1762 Pls
5405 1822 Pls
5418 1883 Pls
5431 1946 Pls
5444 2010 Pls
5457 2076 Pls
5470 2143 Pls
5483 2211 Pls
5496 2281 Pls
5509 2351 Pls
5522 2424 Pls
5535 2497 Pls
5548 2571 Pls
5561 2647 Pls
5574 2723 Pls
5587 2800 Pls
5600 2879 Pls
5613 2958 Pls
5626 3038 Pls
5639 3118 Pls
5652 3200 Pls
5665 3281 Pls
5678 3364 Pls
5691 3447 Pls
5704 3530 Pls
5717 3613 Pls
5730 3697 Pls
5743 3781 Pls
5756 3865 Pls
5769 3949 Pls
5782 4033 Pls
5795 4117 Pls
5808 4201 Pls
5821 4284 Pls
5834 4368 Pls
5847 4450 Pls
% End plot #1
1.000 UL
LTb
1689 4619 N
0 -4171 V
4171 0 V
0 4171 V
-4171 0 V
Z stroke
1.000 UP
1.000 UL
LTb
stroke
grestore
end
showpage
%%Trailer
%%DocumentFonts: Helvetica
%%Pages: 1
