%!PS-Adobe-2.0
%%Title: plot0.1.eps
%%Creator: gnuplot 4.6 patchlevel 4
%%CreationDate: Fri Dec 11 12:43:20 2015
%%DocumentFonts: (atend)
%%BoundingBox: 50 50 554 770
%%Orientation: Landscape
%%Pages: (atend)
%%EndComments
%%BeginProlog
/gnudict 256 dict def
gnudict begin
%
% The following true/false flags may be edited by hand if desired.
% The unit line width and grayscale image gamma correction may also be changed.
%
/Color false def
/Blacktext false def
/Solid false def
/Dashlength 1 def
/Landscape true def
/Level1 false def
/Rounded false def
/ClipToBoundingBox false def
/SuppressPDFMark false def
/TransparentPatterns false def
/gnulinewidth 5.000 def
/userlinewidth gnulinewidth def
/Gamma 1.0 def
/BackgroundColor {-1.000 -1.000 -1.000} def
%
/vshift -46 def
/dl1 {
  10.0 Dashlength mul mul
  Rounded { currentlinewidth 0.75 mul sub dup 0 le { pop 0.01 } if } if
} def
/dl2 {
  10.0 Dashlength mul mul
  Rounded { currentlinewidth 0.75 mul add } if
} def
/hpt_ 31.5 def
/vpt_ 31.5 def
/hpt hpt_ def
/vpt vpt_ def
/doclip {
  ClipToBoundingBox {
    newpath 50 50 moveto 554 50 lineto 554 770 lineto 50 770 lineto closepath
    clip
  } if
} def
%
% Gnuplot Prolog Version 4.6 (September 2012)
%
%/SuppressPDFMark true def
%
/M {moveto} bind def
/L {lineto} bind def
/R {rmoveto} bind def
/V {rlineto} bind def
/N {newpath moveto} bind def
/Z {closepath} bind def
/C {setrgbcolor} bind def
/f {rlineto fill} bind def
/g {setgray} bind def
/Gshow {show} def   % May be redefined later in the file to support UTF-8
/vpt2 vpt 2 mul def
/hpt2 hpt 2 mul def
/Lshow {currentpoint stroke M 0 vshift R 
	Blacktext {gsave 0 setgray show grestore} {show} ifelse} def
/Rshow {currentpoint stroke M dup stringwidth pop neg vshift R
	Blacktext {gsave 0 setgray show grestore} {show} ifelse} def
/Cshow {currentpoint stroke M dup stringwidth pop -2 div vshift R 
	Blacktext {gsave 0 setgray show grestore} {show} ifelse} def
/UP {dup vpt_ mul /vpt exch def hpt_ mul /hpt exch def
  /hpt2 hpt 2 mul def /vpt2 vpt 2 mul def} def
/DL {Color {setrgbcolor Solid {pop []} if 0 setdash}
 {pop pop pop 0 setgray Solid {pop []} if 0 setdash} ifelse} def
/BL {stroke userlinewidth 2 mul setlinewidth
	Rounded {1 setlinejoin 1 setlinecap} if} def
/AL {stroke userlinewidth 2 div setlinewidth
	Rounded {1 setlinejoin 1 setlinecap} if} def
/UL {dup gnulinewidth mul /userlinewidth exch def
	dup 1 lt {pop 1} if 10 mul /udl exch def} def
/PL {stroke userlinewidth setlinewidth
	Rounded {1 setlinejoin 1 setlinecap} if} def
3.8 setmiterlimit
% Default Line colors
/LCw {1 1 1} def
/LCb {0 0 0} def
/LCa {0 0 0} def
/LC0 {1 0 0} def
/LC1 {0 1 0} def
/LC2 {0 0 1} def
/LC3 {1 0 1} def
/LC4 {0 1 1} def
/LC5 {1 1 0} def
/LC6 {0 0 0} def
/LC7 {1 0.3 0} def
/LC8 {0.5 0.5 0.5} def
% Default Line Types
/LTw {PL [] 1 setgray} def
/LTb {BL [] LCb DL} def
/LTa {AL [1 udl mul 2 udl mul] 0 setdash LCa setrgbcolor} def
/LT0 {PL [] LC0 DL} def
/LT1 {PL [4 dl1 2 dl2] LC1 DL} def
/LT2 {PL [2 dl1 3 dl2] LC2 DL} def
/LT3 {PL [1 dl1 1.5 dl2] LC3 DL} def
/LT4 {PL [6 dl1 2 dl2 1 dl1 2 dl2] LC4 DL} def
/LT5 {PL [3 dl1 3 dl2 1 dl1 3 dl2] LC5 DL} def
/LT6 {PL [2 dl1 2 dl2 2 dl1 6 dl2] LC6 DL} def
/LT7 {PL [1 dl1 2 dl2 6 dl1 2 dl2 1 dl1 2 dl2] LC7 DL} def
/LT8 {PL [2 dl1 2 dl2 2 dl1 2 dl2 2 dl1 2 dl2 2 dl1 4 dl2] LC8 DL} def
/Pnt {stroke [] 0 setdash gsave 1 setlinecap M 0 0 V stroke grestore} def
/Dia {stroke [] 0 setdash 2 copy vpt add M
  hpt neg vpt neg V hpt vpt neg V
  hpt vpt V hpt neg vpt V closepath stroke
  Pnt} def
/Pls {stroke [] 0 setdash vpt sub M 0 vpt2 V
  currentpoint stroke M
  hpt neg vpt neg R hpt2 0 V stroke
 } def
/Box {stroke [] 0 setdash 2 copy exch hpt sub exch vpt add M
  0 vpt2 neg V hpt2 0 V 0 vpt2 V
  hpt2 neg 0 V closepath stroke
  Pnt} def
/Crs {stroke [] 0 setdash exch hpt sub exch vpt add M
  hpt2 vpt2 neg V currentpoint stroke M
  hpt2 neg 0 R hpt2 vpt2 V stroke} def
/TriU {stroke [] 0 setdash 2 copy vpt 1.12 mul add M
  hpt neg vpt -1.62 mul V
  hpt 2 mul 0 V
  hpt neg vpt 1.62 mul V closepath stroke
  Pnt} def
/Star {2 copy Pls Crs} def
/BoxF {stroke [] 0 setdash exch hpt sub exch vpt add M
  0 vpt2 neg V hpt2 0 V 0 vpt2 V
  hpt2 neg 0 V closepath fill} def
/TriUF {stroke [] 0 setdash vpt 1.12 mul add M
  hpt neg vpt -1.62 mul V
  hpt 2 mul 0 V
  hpt neg vpt 1.62 mul V closepath fill} def
/TriD {stroke [] 0 setdash 2 copy vpt 1.12 mul sub M
  hpt neg vpt 1.62 mul V
  hpt 2 mul 0 V
  hpt neg vpt -1.62 mul V closepath stroke
  Pnt} def
/TriDF {stroke [] 0 setdash vpt 1.12 mul sub M
  hpt neg vpt 1.62 mul V
  hpt 2 mul 0 V
  hpt neg vpt -1.62 mul V closepath fill} def
/DiaF {stroke [] 0 setdash vpt add M
  hpt neg vpt neg V hpt vpt neg V
  hpt vpt V hpt neg vpt V closepath fill} def
/Pent {stroke [] 0 setdash 2 copy gsave
  translate 0 hpt M 4 {72 rotate 0 hpt L} repeat
  closepath stroke grestore Pnt} def
/PentF {stroke [] 0 setdash gsave
  translate 0 hpt M 4 {72 rotate 0 hpt L} repeat
  closepath fill grestore} def
/Circle {stroke [] 0 setdash 2 copy
  hpt 0 360 arc stroke Pnt} def
/CircleF {stroke [] 0 setdash hpt 0 360 arc fill} def
/C0 {BL [] 0 setdash 2 copy moveto vpt 90 450 arc} bind def
/C1 {BL [] 0 setdash 2 copy moveto
	2 copy vpt 0 90 arc closepath fill
	vpt 0 360 arc closepath} bind def
/C2 {BL [] 0 setdash 2 copy moveto
	2 copy vpt 90 180 arc closepath fill
	vpt 0 360 arc closepath} bind def
/C3 {BL [] 0 setdash 2 copy moveto
	2 copy vpt 0 180 arc closepath fill
	vpt 0 360 arc closepath} bind def
/C4 {BL [] 0 setdash 2 copy moveto
	2 copy vpt 180 270 arc closepath fill
	vpt 0 360 arc closepath} bind def
/C5 {BL [] 0 setdash 2 copy moveto
	2 copy vpt 0 90 arc
	2 copy moveto
	2 copy vpt 180 270 arc closepath fill
	vpt 0 360 arc} bind def
/C6 {BL [] 0 setdash 2 copy moveto
	2 copy vpt 90 270 arc closepath fill
	vpt 0 360 arc closepath} bind def
/C7 {BL [] 0 setdash 2 copy moveto
	2 copy vpt 0 270 arc closepath fill
	vpt 0 360 arc closepath} bind def
/C8 {BL [] 0 setdash 2 copy moveto
	2 copy vpt 270 360 arc closepath fill
	vpt 0 360 arc closepath} bind def
/C9 {BL [] 0 setdash 2 copy moveto
	2 copy vpt 270 450 arc closepath fill
	vpt 0 360 arc closepath} bind def
/C10 {BL [] 0 setdash 2 copy 2 copy moveto vpt 270 360 arc closepath fill
	2 copy moveto
	2 copy vpt 90 180 arc closepath fill
	vpt 0 360 arc closepath} bind def
/C11 {BL [] 0 setdash 2 copy moveto
	2 copy vpt 0 180 arc closepath fill
	2 copy moveto
	2 copy vpt 270 360 arc closepath fill
	vpt 0 360 arc closepath} bind def
/C12 {BL [] 0 setdash 2 copy moveto
	2 copy vpt 180 360 arc closepath fill
	vpt 0 360 arc closepath} bind def
/C13 {BL [] 0 setdash 2 copy moveto
	2 copy vpt 0 90 arc closepath fill
	2 copy moveto
	2 copy vpt 180 360 arc closepath fill
	vpt 0 360 arc closepath} bind def
/C14 {BL [] 0 setdash 2 copy moveto
	2 copy vpt 90 360 arc closepath fill
	vpt 0 360 arc} bind def
/C15 {BL [] 0 setdash 2 copy vpt 0 360 arc closepath fill
	vpt 0 360 arc closepath} bind def
/Rec {newpath 4 2 roll moveto 1 index 0 rlineto 0 exch rlineto
	neg 0 rlineto closepath} bind def
/Square {dup Rec} bind def
/Bsquare {vpt sub exch vpt sub exch vpt2 Square} bind def
/S0 {BL [] 0 setdash 2 copy moveto 0 vpt rlineto BL Bsquare} bind def
/S1 {BL [] 0 setdash 2 copy vpt Square fill Bsquare} bind def
/S2 {BL [] 0 setdash 2 copy exch vpt sub exch vpt Square fill Bsquare} bind def
/S3 {BL [] 0 setdash 2 copy exch vpt sub exch vpt2 vpt Rec fill Bsquare} bind def
/S4 {BL [] 0 setdash 2 copy exch vpt sub exch vpt sub vpt Square fill Bsquare} bind def
/S5 {BL [] 0 setdash 2 copy 2 copy vpt Square fill
	exch vpt sub exch vpt sub vpt Square fill Bsquare} bind def
/S6 {BL [] 0 setdash 2 copy exch vpt sub exch vpt sub vpt vpt2 Rec fill Bsquare} bind def
/S7 {BL [] 0 setdash 2 copy exch vpt sub exch vpt sub vpt vpt2 Rec fill
	2 copy vpt Square fill Bsquare} bind def
/S8 {BL [] 0 setdash 2 copy vpt sub vpt Square fill Bsquare} bind def
/S9 {BL [] 0 setdash 2 copy vpt sub vpt vpt2 Rec fill Bsquare} bind def
/S10 {BL [] 0 setdash 2 copy vpt sub vpt Square fill 2 copy exch vpt sub exch vpt Square fill
	Bsquare} bind def
/S11 {BL [] 0 setdash 2 copy vpt sub vpt Square fill 2 copy exch vpt sub exch vpt2 vpt Rec fill
	Bsquare} bind def
/S12 {BL [] 0 setdash 2 copy exch vpt sub exch vpt sub vpt2 vpt Rec fill Bsquare} bind def
/S13 {BL [] 0 setdash 2 copy exch vpt sub exch vpt sub vpt2 vpt Rec fill
	2 copy vpt Square fill Bsquare} bind def
/S14 {BL [] 0 setdash 2 copy exch vpt sub exch vpt sub vpt2 vpt Rec fill
	2 copy exch vpt sub exch vpt Square fill Bsquare} bind def
/S15 {BL [] 0 setdash 2 copy Bsquare fill Bsquare} bind def
/D0 {gsave translate 45 rotate 0 0 S0 stroke grestore} bind def
/D1 {gsave translate 45 rotate 0 0 S1 stroke grestore} bind def
/D2 {gsave translate 45 rotate 0 0 S2 stroke grestore} bind def
/D3 {gsave translate 45 rotate 0 0 S3 stroke grestore} bind def
/D4 {gsave translate 45 rotate 0 0 S4 stroke grestore} bind def
/D5 {gsave translate 45 rotate 0 0 S5 stroke grestore} bind def
/D6 {gsave translate 45 rotate 0 0 S6 stroke grestore} bind def
/D7 {gsave translate 45 rotate 0 0 S7 stroke grestore} bind def
/D8 {gsave translate 45 rotate 0 0 S8 stroke grestore} bind def
/D9 {gsave translate 45 rotate 0 0 S9 stroke grestore} bind def
/D10 {gsave translate 45 rotate 0 0 S10 stroke grestore} bind def
/D11 {gsave translate 45 rotate 0 0 S11 stroke grestore} bind def
/D12 {gsave translate 45 rotate 0 0 S12 stroke grestore} bind def
/D13 {gsave translate 45 rotate 0 0 S13 stroke grestore} bind def
/D14 {gsave translate 45 rotate 0 0 S14 stroke grestore} bind def
/D15 {gsave translate 45 rotate 0 0 S15 stroke grestore} bind def
/DiaE {stroke [] 0 setdash vpt add M
  hpt neg vpt neg V hpt vpt neg V
  hpt vpt V hpt neg vpt V closepath stroke} def
/BoxE {stroke [] 0 setdash exch hpt sub exch vpt add M
  0 vpt2 neg V hpt2 0 V 0 vpt2 V
  hpt2 neg 0 V closepath stroke} def
/TriUE {stroke [] 0 setdash vpt 1.12 mul add M
  hpt neg vpt -1.62 mul V
  hpt 2 mul 0 V
  hpt neg vpt 1.62 mul V closepath stroke} def
/TriDE {stroke [] 0 setdash vpt 1.12 mul sub M
  hpt neg vpt 1.62 mul V
  hpt 2 mul 0 V
  hpt neg vpt -1.62 mul V closepath stroke} def
/PentE {stroke [] 0 setdash gsave
  translate 0 hpt M 4 {72 rotate 0 hpt L} repeat
  closepath stroke grestore} def
/CircE {stroke [] 0 setdash 
  hpt 0 360 arc stroke} def
/Opaque {gsave closepath 1 setgray fill grestore 0 setgray closepath} def
/DiaW {stroke [] 0 setdash vpt add M
  hpt neg vpt neg V hpt vpt neg V
  hpt vpt V hpt neg vpt V Opaque stroke} def
/BoxW {stroke [] 0 setdash exch hpt sub exch vpt add M
  0 vpt2 neg V hpt2 0 V 0 vpt2 V
  hpt2 neg 0 V Opaque stroke} def
/TriUW {stroke [] 0 setdash vpt 1.12 mul add M
  hpt neg vpt -1.62 mul V
  hpt 2 mul 0 V
  hpt neg vpt 1.62 mul V Opaque stroke} def
/TriDW {stroke [] 0 setdash vpt 1.12 mul sub M
  hpt neg vpt 1.62 mul V
  hpt 2 mul 0 V
  hpt neg vpt -1.62 mul V Opaque stroke} def
/PentW {stroke [] 0 setdash gsave
  translate 0 hpt M 4 {72 rotate 0 hpt L} repeat
  Opaque stroke grestore} def
/CircW {stroke [] 0 setdash 
  hpt 0 360 arc Opaque stroke} def
/BoxFill {gsave Rec 1 setgray fill grestore} def
/Density {
  /Fillden exch def
  currentrgbcolor
  /ColB exch def /ColG exch def /ColR exch def
  /ColR ColR Fillden mul Fillden sub 1 add def
  /ColG ColG Fillden mul Fillden sub 1 add def
  /ColB ColB Fillden mul Fillden sub 1 add def
  ColR ColG ColB setrgbcolor} def
/BoxColFill {gsave Rec PolyFill} def
/PolyFill {gsave Density fill grestore grestore} def
/h {rlineto rlineto rlineto gsave closepath fill grestore} bind def
%
% PostScript Level 1 Pattern Fill routine for rectangles
% Usage: x y w h s a XX PatternFill
%	x,y = lower left corner of box to be filled
%	w,h = width and height of box
%	  a = angle in degrees between lines and x-axis
%	 XX = 0/1 for no/yes cross-hatch
%
/PatternFill {gsave /PFa [ 9 2 roll ] def
  PFa 0 get PFa 2 get 2 div add PFa 1 get PFa 3 get 2 div add translate
  PFa 2 get -2 div PFa 3 get -2 div PFa 2 get PFa 3 get Rec
  TransparentPatterns {} {gsave 1 setgray fill grestore} ifelse
  clip
  currentlinewidth 0.5 mul setlinewidth
  /PFs PFa 2 get dup mul PFa 3 get dup mul add sqrt def
  0 0 M PFa 5 get rotate PFs -2 div dup translate
  0 1 PFs PFa 4 get div 1 add floor cvi
	{PFa 4 get mul 0 M 0 PFs V} for
  0 PFa 6 get ne {
	0 1 PFs PFa 4 get div 1 add floor cvi
	{PFa 4 get mul 0 2 1 roll M PFs 0 V} for
 } if
  stroke grestore} def
%
/languagelevel where
 {pop languagelevel} {1} ifelse
 2 lt
	{/InterpretLevel1 true def}
	{/InterpretLevel1 Level1 def}
 ifelse
%
% PostScript level 2 pattern fill definitions
%
/Level2PatternFill {
/Tile8x8 {/PaintType 2 /PatternType 1 /TilingType 1 /BBox [0 0 8 8] /XStep 8 /YStep 8}
	bind def
/KeepColor {currentrgbcolor [/Pattern /DeviceRGB] setcolorspace} bind def
<< Tile8x8
 /PaintProc {0.5 setlinewidth pop 0 0 M 8 8 L 0 8 M 8 0 L stroke} 
>> matrix makepattern
/Pat1 exch def
<< Tile8x8
 /PaintProc {0.5 setlinewidth pop 0 0 M 8 8 L 0 8 M 8 0 L stroke
	0 4 M 4 8 L 8 4 L 4 0 L 0 4 L stroke}
>> matrix makepattern
/Pat2 exch def
<< Tile8x8
 /PaintProc {0.5 setlinewidth pop 0 0 M 0 8 L
	8 8 L 8 0 L 0 0 L fill}
>> matrix makepattern
/Pat3 exch def
<< Tile8x8
 /PaintProc {0.5 setlinewidth pop -4 8 M 8 -4 L
	0 12 M 12 0 L stroke}
>> matrix makepattern
/Pat4 exch def
<< Tile8x8
 /PaintProc {0.5 setlinewidth pop -4 0 M 8 12 L
	0 -4 M 12 8 L stroke}
>> matrix makepattern
/Pat5 exch def
<< Tile8x8
 /PaintProc {0.5 setlinewidth pop -2 8 M 4 -4 L
	0 12 M 8 -4 L 4 12 M 10 0 L stroke}
>> matrix makepattern
/Pat6 exch def
<< Tile8x8
 /PaintProc {0.5 setlinewidth pop -2 0 M 4 12 L
	0 -4 M 8 12 L 4 -4 M 10 8 L stroke}
>> matrix makepattern
/Pat7 exch def
<< Tile8x8
 /PaintProc {0.5 setlinewidth pop 8 -2 M -4 4 L
	12 0 M -4 8 L 12 4 M 0 10 L stroke}
>> matrix makepattern
/Pat8 exch def
<< Tile8x8
 /PaintProc {0.5 setlinewidth pop 0 -2 M 12 4 L
	-4 0 M 12 8 L -4 4 M 8 10 L stroke}
>> matrix makepattern
/Pat9 exch def
/Pattern1 {PatternBgnd KeepColor Pat1 setpattern} bind def
/Pattern2 {PatternBgnd KeepColor Pat2 setpattern} bind def
/Pattern3 {PatternBgnd KeepColor Pat3 setpattern} bind def
/Pattern4 {PatternBgnd KeepColor Landscape {Pat5} {Pat4} ifelse setpattern} bind def
/Pattern5 {PatternBgnd KeepColor Landscape {Pat4} {Pat5} ifelse setpattern} bind def
/Pattern6 {PatternBgnd KeepColor Landscape {Pat9} {Pat6} ifelse setpattern} bind def
/Pattern7 {PatternBgnd KeepColor Landscape {Pat8} {Pat7} ifelse setpattern} bind def
} def
%
%
%End of PostScript Level 2 code
%
/PatternBgnd {
  TransparentPatterns {} {gsave 1 setgray fill grestore} ifelse
} def
%
% Substitute for Level 2 pattern fill codes with
% grayscale if Level 2 support is not selected.
%
/Level1PatternFill {
/Pattern1 {0.250 Density} bind def
/Pattern2 {0.500 Density} bind def
/Pattern3 {0.750 Density} bind def
/Pattern4 {0.125 Density} bind def
/Pattern5 {0.375 Density} bind def
/Pattern6 {0.625 Density} bind def
/Pattern7 {0.875 Density} bind def
} def
%
% Now test for support of Level 2 code
%
Level1 {Level1PatternFill} {Level2PatternFill} ifelse
%
/Symbol-Oblique /Symbol findfont [1 0 .167 1 0 0] makefont
dup length dict begin {1 index /FID eq {pop pop} {def} ifelse} forall
currentdict end definefont pop
Level1 SuppressPDFMark or 
{} {
/SDict 10 dict def
systemdict /pdfmark known not {
  userdict /pdfmark systemdict /cleartomark get put
} if
SDict begin [
  /Title (plot0.1.eps)
  /Subject (gnuplot plot)
  /Creator (gnuplot 4.6 patchlevel 4)
  /Author (peter)
%  /Producer (gnuplot)
%  /Keywords ()
  /CreationDate (Fri Dec 11 12:43:20 2015)
  /DOCINFO pdfmark
end
} ifelse
end
%%EndProlog
%%Page: 1 1
gnudict begin
gsave
doclip
50 50 translate
0.100 0.100 scale
90 rotate
0 -5040 translate
0 setgray
newpath
(Helvetica) findfont 140 scalefont setfont
BackgroundColor 0 lt 3 1 roll 0 lt exch 0 lt or or not {gsave BackgroundColor C clippath fill grestore} if
1.000 UL
LTb
1689 448 M
63 0 V
4108 0 R
-63 0 V
-4192 0 R
(-40) Rshow
1.000 UL
LTb
1689 1143 M
63 0 V
4108 0 R
-63 0 V
-4192 0 R
(-20) Rshow
1.000 UL
LTb
1689 1838 M
63 0 V
4108 0 R
-63 0 V
-4192 0 R
( 0) Rshow
1.000 UL
LTb
1689 2534 M
63 0 V
4108 0 R
-63 0 V
-4192 0 R
( 20) Rshow
1.000 UL
LTb
1689 3229 M
63 0 V
4108 0 R
-63 0 V
-4192 0 R
( 40) Rshow
1.000 UL
LTb
1689 3924 M
63 0 V
4108 0 R
-63 0 V
-4192 0 R
( 60) Rshow
1.000 UL
LTb
1689 4619 M
63 0 V
4108 0 R
-63 0 V
-4192 0 R
( 80) Rshow
1.000 UL
LTb
1689 448 M
0 63 V
0 4108 R
0 -63 V
0 -4248 R
( 0) Cshow
1.000 UL
LTb
2384 448 M
0 63 V
0 4108 R
0 -63 V
0 -4248 R
( 2) Cshow
1.000 UL
LTb
3079 448 M
0 63 V
0 4108 R
0 -63 V
0 -4248 R
( 4) Cshow
1.000 UL
LTb
3775 448 M
0 63 V
0 4108 R
0 -63 V
0 -4248 R
( 6) Cshow
1.000 UL
LTb
4470 448 M
0 63 V
0 4108 R
0 -63 V
0 -4248 R
( 8) Cshow
1.000 UL
LTb
5165 448 M
0 63 V
0 4108 R
0 -63 V
0 -4248 R
( 10) Cshow
1.000 UL
LTb
5860 448 M
0 63 V
0 4108 R
0 -63 V
0 -4248 R
( 12) Cshow
1.000 UL
LTb
1.000 UL
LTb
1689 4619 N
0 -4171 V
4171 0 V
0 4171 V
-4171 0 V
Z stroke
LCb setrgbcolor
1199 2533 M
currentpoint gsave translate -270 rotate 0 0 M
(y axis) Cshow
grestore
LTb
LCb setrgbcolor
3774 98 M
(x axis) Cshow
LTb
3774 4829 M
(Function at time 0.1) Cshow
1.000 UP
1.000 UL
LTb
% Begin plot #1
1.000 UP
1.000 UL
LT0
1689 1805 Pls
1702 1805 Pls
1715 1806 Pls
1728 1806 Pls
1741 1807 Pls
1754 1808 Pls
1767 1808 Pls
1780 1809 Pls
1793 1810 Pls
1806 1811 Pls
1819 1812 Pls
1832 1813 Pls
1845 1814 Pls
1858 1816 Pls
1871 1817 Pls
1884 1818 Pls
1897 1820 Pls
1910 1822 Pls
1923 1823 Pls
1936 1825 Pls
1949 1827 Pls
1962 1829 Pls
1975 1831 Pls
1988 1834 Pls
2001 1836 Pls
2014 1838 Pls
2027 1841 Pls
2040 1844 Pls
2053 1847 Pls
2066 1850 Pls
2079 1853 Pls
2092 1856 Pls
2105 1860 Pls
2118 1863 Pls
2131 1867 Pls
2144 1871 Pls
2157 1874 Pls
2170 1879 Pls
2183 1883 Pls
2196 1887 Pls
2209 1892 Pls
2222 1896 Pls
2235 1901 Pls
2248 1906 Pls
2261 1911 Pls
2274 1916 Pls
2287 1921 Pls
2300 1926 Pls
2313 1932 Pls
2326 1937 Pls
2339 1943 Pls
2352 1948 Pls
2365 1954 Pls
2378 1960 Pls
2391 1966 Pls
2404 1972 Pls
2417 1978 Pls
2430 1984 Pls
2443 1990 Pls
2456 1997 Pls
2469 2003 Pls
2482 2009 Pls
2495 2016 Pls
2508 2022 Pls
2521 2028 Pls
2534 2035 Pls
2547 2041 Pls
2560 2048 Pls
2573 2054 Pls
2586 2060 Pls
2599 2066 Pls
2612 2073 Pls
2625 2079 Pls
2638 2085 Pls
2651 2091 Pls
2664 2096 Pls
2677 2102 Pls
2690 2108 Pls
2703 2113 Pls
2716 2119 Pls
2729 2124 Pls
2741 2129 Pls
2754 2134 Pls
2767 2138 Pls
2780 2143 Pls
2793 2147 Pls
2806 2151 Pls
2819 2155 Pls
2832 2158 Pls
2845 2161 Pls
2858 2164 Pls
2871 2167 Pls
2884 2169 Pls
2897 2171 Pls
2910 2173 Pls
2923 2175 Pls
2936 2176 Pls
2949 2176 Pls
2962 2177 Pls
2975 2177 Pls
2988 2176 Pls
3001 2176 Pls
3014 2174 Pls
3027 2173 Pls
3040 2171 Pls
3053 2168 Pls
3066 2166 Pls
3079 2162 Pls
3092 2159 Pls
3105 2154 Pls
3118 2150 Pls
3131 2145 Pls
3144 2139 Pls
3157 2133 Pls
3170 2126 Pls
3183 2119 Pls
3196 2112 Pls
3209 2104 Pls
3222 2095 Pls
3235 2086 Pls
3248 2077 Pls
3261 2067 Pls
3274 2056 Pls
3287 2045 Pls
3300 2033 Pls
3313 2021 Pls
3326 2009 Pls
3339 1996 Pls
3352 1982 Pls
3365 1968 Pls
3378 1954 Pls
3391 1938 Pls
3404 1923 Pls
3417 1907 Pls
3430 1891 Pls
3443 1874 Pls
3456 1856 Pls
3469 1839 Pls
3482 1820 Pls
3495 1802 Pls
3508 1783 Pls
3521 1763 Pls
3534 1744 Pls
3547 1723 Pls
3560 1703 Pls
3573 1682 Pls
3586 1661 Pls
3599 1639 Pls
3612 1618 Pls
3625 1595 Pls
3638 1573 Pls
3651 1551 Pls
3664 1528 Pls
3677 1505 Pls
3690 1482 Pls
3703 1458 Pls
3716 1435 Pls
3729 1411 Pls
3742 1387 Pls
3755 1364 Pls
3768 1340 Pls
3781 1316 Pls
3794 1292 Pls
3807 1268 Pls
3820 1244 Pls
3833 1221 Pls
3846 1197 Pls
3859 1174 Pls
3872 1150 Pls
3885 1127 Pls
3898 1104 Pls
3911 1081 Pls
3924 1059 Pls
3937 1036 Pls
3950 1014 Pls
3963 993 Pls
3976 972 Pls
3989 951 Pls
4002 930 Pls
4015 910 Pls
4028 891 Pls
4041 872 Pls
4054 853 Pls
4067 836 Pls
4080 818 Pls
4093 802 Pls
4106 786 Pls
4119 770 Pls
4132 755 Pls
4145 742 Pls
4158 728 Pls
4171 716 Pls
4184 704 Pls
4197 693 Pls
4210 683 Pls
4223 674 Pls
4236 666 Pls
4249 659 Pls
4262 653 Pls
4275 647 Pls
4288 643 Pls
4301 640 Pls
4314 637 Pls
4327 636 Pls
4340 636 Pls
4353 637 Pls
4366 639 Pls
4379 642 Pls
4392 646 Pls
4405 651 Pls
4418 658 Pls
4431 665 Pls
4444 674 Pls
4457 684 Pls
4470 696 Pls
4483 708 Pls
4496 722 Pls
4509 737 Pls
4522 753 Pls
4535 770 Pls
4548 789 Pls
4561 809 Pls
4574 830 Pls
4587 852 Pls
4600 876 Pls
4613 901 Pls
4626 927 Pls
4639 954 Pls
4652 982 Pls
4665 1012 Pls
4678 1043 Pls
4691 1075 Pls
4704 1108 Pls
4717 1143 Pls
4730 1178 Pls
4743 1215 Pls
4756 1253 Pls
4769 1292 Pls
4782 1332 Pls
4795 1373 Pls
4808 1415 Pls
4820 1458 Pls
4833 1502 Pls
4846 1547 Pls
4859 1593 Pls
4872 1639 Pls
4885 1687 Pls
4898 1736 Pls
4911 1785 Pls
4924 1835 Pls
4937 1886 Pls
4950 1937 Pls
4963 1989 Pls
4976 2042 Pls
4989 2096 Pls
5002 2150 Pls
5015 2204 Pls
5028 2259 Pls
5041 2314 Pls
5054 2370 Pls
5067 2426 Pls
5080 2482 Pls
5093 2539 Pls
5106 2595 Pls
5119 2652 Pls
5132 2709 Pls
5145 2766 Pls
5158 2823 Pls
5171 2880 Pls
5184 2937 Pls
5197 2993 Pls
5210 3050 Pls
5223 3106 Pls
5236 3162 Pls
5249 3217 Pls
5262 3272 Pls
5275 3326 Pls
5288 3380 Pls
5301 3434 Pls
5314 3486 Pls
5327 3538 Pls
5340 3589 Pls
5353 3640 Pls
5366 3689 Pls
5379 3738 Pls
5392 3785 Pls
5405 3832 Pls
5418 3877 Pls
5431 3921 Pls
5444 3964 Pls
5457 4006 Pls
5470 4046 Pls
5483 4085 Pls
5496 4123 Pls
5509 4159 Pls
5522 4194 Pls
5535 4227 Pls
5548 4259 Pls
5561 4288 Pls
5574 4317 Pls
5587 4343 Pls
5600 4368 Pls
5613 4390 Pls
5626 4411 Pls
5639 4430 Pls
5652 4447 Pls
5665 4462 Pls
5678 4475 Pls
5691 4486 Pls
5704 4495 Pls
5717 4501 Pls
5730 4506 Pls
5743 4508 Pls
5756 4508 Pls
5769 4506 Pls
5782 4501 Pls
5795 4494 Pls
5808 4485 Pls
5821 4474 Pls
5834 4460 Pls
5847 4444 Pls
% End plot #1
1.000 UL
LTb
1689 4619 N
0 -4171 V
4171 0 V
0 4171 V
-4171 0 V
Z stroke
1.000 UP
1.000 UL
LTb
stroke
grestore
end
showpage
%%Trailer
%%DocumentFonts: Helvetica
%%Pages: 1
