%!PS-Adobe-2.0
%%Title: plot0.5.eps
%%Creator: gnuplot 4.6 patchlevel 4
%%CreationDate: Fri Dec 11 12:43:20 2015
%%DocumentFonts: (atend)
%%BoundingBox: 50 50 554 770
%%Orientation: Landscape
%%Pages: (atend)
%%EndComments
%%BeginProlog
/gnudict 256 dict def
gnudict begin
%
% The following true/false flags may be edited by hand if desired.
% The unit line width and grayscale image gamma correction may also be changed.
%
/Color false def
/Blacktext false def
/Solid false def
/Dashlength 1 def
/Landscape true def
/Level1 false def
/Rounded false def
/ClipToBoundingBox false def
/SuppressPDFMark false def
/TransparentPatterns false def
/gnulinewidth 5.000 def
/userlinewidth gnulinewidth def
/Gamma 1.0 def
/BackgroundColor {-1.000 -1.000 -1.000} def
%
/vshift -46 def
/dl1 {
  10.0 Dashlength mul mul
  Rounded { currentlinewidth 0.75 mul sub dup 0 le { pop 0.01 } if } if
} def
/dl2 {
  10.0 Dashlength mul mul
  Rounded { currentlinewidth 0.75 mul add } if
} def
/hpt_ 31.5 def
/vpt_ 31.5 def
/hpt hpt_ def
/vpt vpt_ def
/doclip {
  ClipToBoundingBox {
    newpath 50 50 moveto 554 50 lineto 554 770 lineto 50 770 lineto closepath
    clip
  } if
} def
%
% Gnuplot Prolog Version 4.6 (September 2012)
%
%/SuppressPDFMark true def
%
/M {moveto} bind def
/L {lineto} bind def
/R {rmoveto} bind def
/V {rlineto} bind def
/N {newpath moveto} bind def
/Z {closepath} bind def
/C {setrgbcolor} bind def
/f {rlineto fill} bind def
/g {setgray} bind def
/Gshow {show} def   % May be redefined later in the file to support UTF-8
/vpt2 vpt 2 mul def
/hpt2 hpt 2 mul def
/Lshow {currentpoint stroke M 0 vshift R 
	Blacktext {gsave 0 setgray show grestore} {show} ifelse} def
/Rshow {currentpoint stroke M dup stringwidth pop neg vshift R
	Blacktext {gsave 0 setgray show grestore} {show} ifelse} def
/Cshow {currentpoint stroke M dup stringwidth pop -2 div vshift R 
	Blacktext {gsave 0 setgray show grestore} {show} ifelse} def
/UP {dup vpt_ mul /vpt exch def hpt_ mul /hpt exch def
  /hpt2 hpt 2 mul def /vpt2 vpt 2 mul def} def
/DL {Color {setrgbcolor Solid {pop []} if 0 setdash}
 {pop pop pop 0 setgray Solid {pop []} if 0 setdash} ifelse} def
/BL {stroke userlinewidth 2 mul setlinewidth
	Rounded {1 setlinejoin 1 setlinecap} if} def
/AL {stroke userlinewidth 2 div setlinewidth
	Rounded {1 setlinejoin 1 setlinecap} if} def
/UL {dup gnulinewidth mul /userlinewidth exch def
	dup 1 lt {pop 1} if 10 mul /udl exch def} def
/PL {stroke userlinewidth setlinewidth
	Rounded {1 setlinejoin 1 setlinecap} if} def
3.8 setmiterlimit
% Default Line colors
/LCw {1 1 1} def
/LCb {0 0 0} def
/LCa {0 0 0} def
/LC0 {1 0 0} def
/LC1 {0 1 0} def
/LC2 {0 0 1} def
/LC3 {1 0 1} def
/LC4 {0 1 1} def
/LC5 {1 1 0} def
/LC6 {0 0 0} def
/LC7 {1 0.3 0} def
/LC8 {0.5 0.5 0.5} def
% Default Line Types
/LTw {PL [] 1 setgray} def
/LTb {BL [] LCb DL} def
/LTa {AL [1 udl mul 2 udl mul] 0 setdash LCa setrgbcolor} def
/LT0 {PL [] LC0 DL} def
/LT1 {PL [4 dl1 2 dl2] LC1 DL} def
/LT2 {PL [2 dl1 3 dl2] LC2 DL} def
/LT3 {PL [1 dl1 1.5 dl2] LC3 DL} def
/LT4 {PL [6 dl1 2 dl2 1 dl1 2 dl2] LC4 DL} def
/LT5 {PL [3 dl1 3 dl2 1 dl1 3 dl2] LC5 DL} def
/LT6 {PL [2 dl1 2 dl2 2 dl1 6 dl2] LC6 DL} def
/LT7 {PL [1 dl1 2 dl2 6 dl1 2 dl2 1 dl1 2 dl2] LC7 DL} def
/LT8 {PL [2 dl1 2 dl2 2 dl1 2 dl2 2 dl1 2 dl2 2 dl1 4 dl2] LC8 DL} def
/Pnt {stroke [] 0 setdash gsave 1 setlinecap M 0 0 V stroke grestore} def
/Dia {stroke [] 0 setdash 2 copy vpt add M
  hpt neg vpt neg V hpt vpt neg V
  hpt vpt V hpt neg vpt V closepath stroke
  Pnt} def
/Pls {stroke [] 0 setdash vpt sub M 0 vpt2 V
  currentpoint stroke M
  hpt neg vpt neg R hpt2 0 V stroke
 } def
/Box {stroke [] 0 setdash 2 copy exch hpt sub exch vpt add M
  0 vpt2 neg V hpt2 0 V 0 vpt2 V
  hpt2 neg 0 V closepath stroke
  Pnt} def
/Crs {stroke [] 0 setdash exch hpt sub exch vpt add M
  hpt2 vpt2 neg V currentpoint stroke M
  hpt2 neg 0 R hpt2 vpt2 V stroke} def
/TriU {stroke [] 0 setdash 2 copy vpt 1.12 mul add M
  hpt neg vpt -1.62 mul V
  hpt 2 mul 0 V
  hpt neg vpt 1.62 mul V closepath stroke
  Pnt} def
/Star {2 copy Pls Crs} def
/BoxF {stroke [] 0 setdash exch hpt sub exch vpt add M
  0 vpt2 neg V hpt2 0 V 0 vpt2 V
  hpt2 neg 0 V closepath fill} def
/TriUF {stroke [] 0 setdash vpt 1.12 mul add M
  hpt neg vpt -1.62 mul V
  hpt 2 mul 0 V
  hpt neg vpt 1.62 mul V closepath fill} def
/TriD {stroke [] 0 setdash 2 copy vpt 1.12 mul sub M
  hpt neg vpt 1.62 mul V
  hpt 2 mul 0 V
  hpt neg vpt -1.62 mul V closepath stroke
  Pnt} def
/TriDF {stroke [] 0 setdash vpt 1.12 mul sub M
  hpt neg vpt 1.62 mul V
  hpt 2 mul 0 V
  hpt neg vpt -1.62 mul V closepath fill} def
/DiaF {stroke [] 0 setdash vpt add M
  hpt neg vpt neg V hpt vpt neg V
  hpt vpt V hpt neg vpt V closepath fill} def
/Pent {stroke [] 0 setdash 2 copy gsave
  translate 0 hpt M 4 {72 rotate 0 hpt L} repeat
  closepath stroke grestore Pnt} def
/PentF {stroke [] 0 setdash gsave
  translate 0 hpt M 4 {72 rotate 0 hpt L} repeat
  closepath fill grestore} def
/Circle {stroke [] 0 setdash 2 copy
  hpt 0 360 arc stroke Pnt} def
/CircleF {stroke [] 0 setdash hpt 0 360 arc fill} def
/C0 {BL [] 0 setdash 2 copy moveto vpt 90 450 arc} bind def
/C1 {BL [] 0 setdash 2 copy moveto
	2 copy vpt 0 90 arc closepath fill
	vpt 0 360 arc closepath} bind def
/C2 {BL [] 0 setdash 2 copy moveto
	2 copy vpt 90 180 arc closepath fill
	vpt 0 360 arc closepath} bind def
/C3 {BL [] 0 setdash 2 copy moveto
	2 copy vpt 0 180 arc closepath fill
	vpt 0 360 arc closepath} bind def
/C4 {BL [] 0 setdash 2 copy moveto
	2 copy vpt 180 270 arc closepath fill
	vpt 0 360 arc closepath} bind def
/C5 {BL [] 0 setdash 2 copy moveto
	2 copy vpt 0 90 arc
	2 copy moveto
	2 copy vpt 180 270 arc closepath fill
	vpt 0 360 arc} bind def
/C6 {BL [] 0 setdash 2 copy moveto
	2 copy vpt 90 270 arc closepath fill
	vpt 0 360 arc closepath} bind def
/C7 {BL [] 0 setdash 2 copy moveto
	2 copy vpt 0 270 arc closepath fill
	vpt 0 360 arc closepath} bind def
/C8 {BL [] 0 setdash 2 copy moveto
	2 copy vpt 270 360 arc closepath fill
	vpt 0 360 arc closepath} bind def
/C9 {BL [] 0 setdash 2 copy moveto
	2 copy vpt 270 450 arc closepath fill
	vpt 0 360 arc closepath} bind def
/C10 {BL [] 0 setdash 2 copy 2 copy moveto vpt 270 360 arc closepath fill
	2 copy moveto
	2 copy vpt 90 180 arc closepath fill
	vpt 0 360 arc closepath} bind def
/C11 {BL [] 0 setdash 2 copy moveto
	2 copy vpt 0 180 arc closepath fill
	2 copy moveto
	2 copy vpt 270 360 arc closepath fill
	vpt 0 360 arc closepath} bind def
/C12 {BL [] 0 setdash 2 copy moveto
	2 copy vpt 180 360 arc closepath fill
	vpt 0 360 arc closepath} bind def
/C13 {BL [] 0 setdash 2 copy moveto
	2 copy vpt 0 90 arc closepath fill
	2 copy moveto
	2 copy vpt 180 360 arc closepath fill
	vpt 0 360 arc closepath} bind def
/C14 {BL [] 0 setdash 2 copy moveto
	2 copy vpt 90 360 arc closepath fill
	vpt 0 360 arc} bind def
/C15 {BL [] 0 setdash 2 copy vpt 0 360 arc closepath fill
	vpt 0 360 arc closepath} bind def
/Rec {newpath 4 2 roll moveto 1 index 0 rlineto 0 exch rlineto
	neg 0 rlineto closepath} bind def
/Square {dup Rec} bind def
/Bsquare {vpt sub exch vpt sub exch vpt2 Square} bind def
/S0 {BL [] 0 setdash 2 copy moveto 0 vpt rlineto BL Bsquare} bind def
/S1 {BL [] 0 setdash 2 copy vpt Square fill Bsquare} bind def
/S2 {BL [] 0 setdash 2 copy exch vpt sub exch vpt Square fill Bsquare} bind def
/S3 {BL [] 0 setdash 2 copy exch vpt sub exch vpt2 vpt Rec fill Bsquare} bind def
/S4 {BL [] 0 setdash 2 copy exch vpt sub exch vpt sub vpt Square fill Bsquare} bind def
/S5 {BL [] 0 setdash 2 copy 2 copy vpt Square fill
	exch vpt sub exch vpt sub vpt Square fill Bsquare} bind def
/S6 {BL [] 0 setdash 2 copy exch vpt sub exch vpt sub vpt vpt2 Rec fill Bsquare} bind def
/S7 {BL [] 0 setdash 2 copy exch vpt sub exch vpt sub vpt vpt2 Rec fill
	2 copy vpt Square fill Bsquare} bind def
/S8 {BL [] 0 setdash 2 copy vpt sub vpt Square fill Bsquare} bind def
/S9 {BL [] 0 setdash 2 copy vpt sub vpt vpt2 Rec fill Bsquare} bind def
/S10 {BL [] 0 setdash 2 copy vpt sub vpt Square fill 2 copy exch vpt sub exch vpt Square fill
	Bsquare} bind def
/S11 {BL [] 0 setdash 2 copy vpt sub vpt Square fill 2 copy exch vpt sub exch vpt2 vpt Rec fill
	Bsquare} bind def
/S12 {BL [] 0 setdash 2 copy exch vpt sub exch vpt sub vpt2 vpt Rec fill Bsquare} bind def
/S13 {BL [] 0 setdash 2 copy exch vpt sub exch vpt sub vpt2 vpt Rec fill
	2 copy vpt Square fill Bsquare} bind def
/S14 {BL [] 0 setdash 2 copy exch vpt sub exch vpt sub vpt2 vpt Rec fill
	2 copy exch vpt sub exch vpt Square fill Bsquare} bind def
/S15 {BL [] 0 setdash 2 copy Bsquare fill Bsquare} bind def
/D0 {gsave translate 45 rotate 0 0 S0 stroke grestore} bind def
/D1 {gsave translate 45 rotate 0 0 S1 stroke grestore} bind def
/D2 {gsave translate 45 rotate 0 0 S2 stroke grestore} bind def
/D3 {gsave translate 45 rotate 0 0 S3 stroke grestore} bind def
/D4 {gsave translate 45 rotate 0 0 S4 stroke grestore} bind def
/D5 {gsave translate 45 rotate 0 0 S5 stroke grestore} bind def
/D6 {gsave translate 45 rotate 0 0 S6 stroke grestore} bind def
/D7 {gsave translate 45 rotate 0 0 S7 stroke grestore} bind def
/D8 {gsave translate 45 rotate 0 0 S8 stroke grestore} bind def
/D9 {gsave translate 45 rotate 0 0 S9 stroke grestore} bind def
/D10 {gsave translate 45 rotate 0 0 S10 stroke grestore} bind def
/D11 {gsave translate 45 rotate 0 0 S11 stroke grestore} bind def
/D12 {gsave translate 45 rotate 0 0 S12 stroke grestore} bind def
/D13 {gsave translate 45 rotate 0 0 S13 stroke grestore} bind def
/D14 {gsave translate 45 rotate 0 0 S14 stroke grestore} bind def
/D15 {gsave translate 45 rotate 0 0 S15 stroke grestore} bind def
/DiaE {stroke [] 0 setdash vpt add M
  hpt neg vpt neg V hpt vpt neg V
  hpt vpt V hpt neg vpt V closepath stroke} def
/BoxE {stroke [] 0 setdash exch hpt sub exch vpt add M
  0 vpt2 neg V hpt2 0 V 0 vpt2 V
  hpt2 neg 0 V closepath stroke} def
/TriUE {stroke [] 0 setdash vpt 1.12 mul add M
  hpt neg vpt -1.62 mul V
  hpt 2 mul 0 V
  hpt neg vpt 1.62 mul V closepath stroke} def
/TriDE {stroke [] 0 setdash vpt 1.12 mul sub M
  hpt neg vpt 1.62 mul V
  hpt 2 mul 0 V
  hpt neg vpt -1.62 mul V closepath stroke} def
/PentE {stroke [] 0 setdash gsave
  translate 0 hpt M 4 {72 rotate 0 hpt L} repeat
  closepath stroke grestore} def
/CircE {stroke [] 0 setdash 
  hpt 0 360 arc stroke} def
/Opaque {gsave closepath 1 setgray fill grestore 0 setgray closepath} def
/DiaW {stroke [] 0 setdash vpt add M
  hpt neg vpt neg V hpt vpt neg V
  hpt vpt V hpt neg vpt V Opaque stroke} def
/BoxW {stroke [] 0 setdash exch hpt sub exch vpt add M
  0 vpt2 neg V hpt2 0 V 0 vpt2 V
  hpt2 neg 0 V Opaque stroke} def
/TriUW {stroke [] 0 setdash vpt 1.12 mul add M
  hpt neg vpt -1.62 mul V
  hpt 2 mul 0 V
  hpt neg vpt 1.62 mul V Opaque stroke} def
/TriDW {stroke [] 0 setdash vpt 1.12 mul sub M
  hpt neg vpt 1.62 mul V
  hpt 2 mul 0 V
  hpt neg vpt -1.62 mul V Opaque stroke} def
/PentW {stroke [] 0 setdash gsave
  translate 0 hpt M 4 {72 rotate 0 hpt L} repeat
  Opaque stroke grestore} def
/CircW {stroke [] 0 setdash 
  hpt 0 360 arc Opaque stroke} def
/BoxFill {gsave Rec 1 setgray fill grestore} def
/Density {
  /Fillden exch def
  currentrgbcolor
  /ColB exch def /ColG exch def /ColR exch def
  /ColR ColR Fillden mul Fillden sub 1 add def
  /ColG ColG Fillden mul Fillden sub 1 add def
  /ColB ColB Fillden mul Fillden sub 1 add def
  ColR ColG ColB setrgbcolor} def
/BoxColFill {gsave Rec PolyFill} def
/PolyFill {gsave Density fill grestore grestore} def
/h {rlineto rlineto rlineto gsave closepath fill grestore} bind def
%
% PostScript Level 1 Pattern Fill routine for rectangles
% Usage: x y w h s a XX PatternFill
%	x,y = lower left corner of box to be filled
%	w,h = width and height of box
%	  a = angle in degrees between lines and x-axis
%	 XX = 0/1 for no/yes cross-hatch
%
/PatternFill {gsave /PFa [ 9 2 roll ] def
  PFa 0 get PFa 2 get 2 div add PFa 1 get PFa 3 get 2 div add translate
  PFa 2 get -2 div PFa 3 get -2 div PFa 2 get PFa 3 get Rec
  TransparentPatterns {} {gsave 1 setgray fill grestore} ifelse
  clip
  currentlinewidth 0.5 mul setlinewidth
  /PFs PFa 2 get dup mul PFa 3 get dup mul add sqrt def
  0 0 M PFa 5 get rotate PFs -2 div dup translate
  0 1 PFs PFa 4 get div 1 add floor cvi
	{PFa 4 get mul 0 M 0 PFs V} for
  0 PFa 6 get ne {
	0 1 PFs PFa 4 get div 1 add floor cvi
	{PFa 4 get mul 0 2 1 roll M PFs 0 V} for
 } if
  stroke grestore} def
%
/languagelevel where
 {pop languagelevel} {1} ifelse
 2 lt
	{/InterpretLevel1 true def}
	{/InterpretLevel1 Level1 def}
 ifelse
%
% PostScript level 2 pattern fill definitions
%
/Level2PatternFill {
/Tile8x8 {/PaintType 2 /PatternType 1 /TilingType 1 /BBox [0 0 8 8] /XStep 8 /YStep 8}
	bind def
/KeepColor {currentrgbcolor [/Pattern /DeviceRGB] setcolorspace} bind def
<< Tile8x8
 /PaintProc {0.5 setlinewidth pop 0 0 M 8 8 L 0 8 M 8 0 L stroke} 
>> matrix makepattern
/Pat1 exch def
<< Tile8x8
 /PaintProc {0.5 setlinewidth pop 0 0 M 8 8 L 0 8 M 8 0 L stroke
	0 4 M 4 8 L 8 4 L 4 0 L 0 4 L stroke}
>> matrix makepattern
/Pat2 exch def
<< Tile8x8
 /PaintProc {0.5 setlinewidth pop 0 0 M 0 8 L
	8 8 L 8 0 L 0 0 L fill}
>> matrix makepattern
/Pat3 exch def
<< Tile8x8
 /PaintProc {0.5 setlinewidth pop -4 8 M 8 -4 L
	0 12 M 12 0 L stroke}
>> matrix makepattern
/Pat4 exch def
<< Tile8x8
 /PaintProc {0.5 setlinewidth pop -4 0 M 8 12 L
	0 -4 M 12 8 L stroke}
>> matrix makepattern
/Pat5 exch def
<< Tile8x8
 /PaintProc {0.5 setlinewidth pop -2 8 M 4 -4 L
	0 12 M 8 -4 L 4 12 M 10 0 L stroke}
>> matrix makepattern
/Pat6 exch def
<< Tile8x8
 /PaintProc {0.5 setlinewidth pop -2 0 M 4 12 L
	0 -4 M 8 12 L 4 -4 M 10 8 L stroke}
>> matrix makepattern
/Pat7 exch def
<< Tile8x8
 /PaintProc {0.5 setlinewidth pop 8 -2 M -4 4 L
	12 0 M -4 8 L 12 4 M 0 10 L stroke}
>> matrix makepattern
/Pat8 exch def
<< Tile8x8
 /PaintProc {0.5 setlinewidth pop 0 -2 M 12 4 L
	-4 0 M 12 8 L -4 4 M 8 10 L stroke}
>> matrix makepattern
/Pat9 exch def
/Pattern1 {PatternBgnd KeepColor Pat1 setpattern} bind def
/Pattern2 {PatternBgnd KeepColor Pat2 setpattern} bind def
/Pattern3 {PatternBgnd KeepColor Pat3 setpattern} bind def
/Pattern4 {PatternBgnd KeepColor Landscape {Pat5} {Pat4} ifelse setpattern} bind def
/Pattern5 {PatternBgnd KeepColor Landscape {Pat4} {Pat5} ifelse setpattern} bind def
/Pattern6 {PatternBgnd KeepColor Landscape {Pat9} {Pat6} ifelse setpattern} bind def
/Pattern7 {PatternBgnd KeepColor Landscape {Pat8} {Pat7} ifelse setpattern} bind def
} def
%
%
%End of PostScript Level 2 code
%
/PatternBgnd {
  TransparentPatterns {} {gsave 1 setgray fill grestore} ifelse
} def
%
% Substitute for Level 2 pattern fill codes with
% grayscale if Level 2 support is not selected.
%
/Level1PatternFill {
/Pattern1 {0.250 Density} bind def
/Pattern2 {0.500 Density} bind def
/Pattern3 {0.750 Density} bind def
/Pattern4 {0.125 Density} bind def
/Pattern5 {0.375 Density} bind def
/Pattern6 {0.625 Density} bind def
/Pattern7 {0.875 Density} bind def
} def
%
% Now test for support of Level 2 code
%
Level1 {Level1PatternFill} {Level2PatternFill} ifelse
%
/Symbol-Oblique /Symbol findfont [1 0 .167 1 0 0] makefont
dup length dict begin {1 index /FID eq {pop pop} {def} ifelse} forall
currentdict end definefont pop
Level1 SuppressPDFMark or 
{} {
/SDict 10 dict def
systemdict /pdfmark known not {
  userdict /pdfmark systemdict /cleartomark get put
} if
SDict begin [
  /Title (plot0.5.eps)
  /Subject (gnuplot plot)
  /Creator (gnuplot 4.6 patchlevel 4)
  /Author (peter)
%  /Producer (gnuplot)
%  /Keywords ()
  /CreationDate (Fri Dec 11 12:43:20 2015)
  /DOCINFO pdfmark
end
} ifelse
end
%%EndProlog
%%Page: 1 1
gnudict begin
gsave
doclip
50 50 translate
0.100 0.100 scale
90 rotate
0 -5040 translate
0 setgray
newpath
(Helvetica) findfont 140 scalefont setfont
BackgroundColor 0 lt 3 1 roll 0 lt exch 0 lt or or not {gsave BackgroundColor C clippath fill grestore} if
1.000 UL
LTb
1689 448 M
63 0 V
4108 0 R
-63 0 V
-4192 0 R
(-80) Rshow
1.000 UL
LTb
1689 1143 M
63 0 V
4108 0 R
-63 0 V
-4192 0 R
(-60) Rshow
1.000 UL
LTb
1689 1838 M
63 0 V
4108 0 R
-63 0 V
-4192 0 R
(-40) Rshow
1.000 UL
LTb
1689 2534 M
63 0 V
4108 0 R
-63 0 V
-4192 0 R
(-20) Rshow
1.000 UL
LTb
1689 3229 M
63 0 V
4108 0 R
-63 0 V
-4192 0 R
( 0) Rshow
1.000 UL
LTb
1689 3924 M
63 0 V
4108 0 R
-63 0 V
-4192 0 R
( 20) Rshow
1.000 UL
LTb
1689 4619 M
63 0 V
4108 0 R
-63 0 V
-4192 0 R
( 40) Rshow
1.000 UL
LTb
1689 448 M
0 63 V
0 4108 R
0 -63 V
0 -4248 R
( 0) Cshow
1.000 UL
LTb
2384 448 M
0 63 V
0 4108 R
0 -63 V
0 -4248 R
( 2) Cshow
1.000 UL
LTb
3079 448 M
0 63 V
0 4108 R
0 -63 V
0 -4248 R
( 4) Cshow
1.000 UL
LTb
3775 448 M
0 63 V
0 4108 R
0 -63 V
0 -4248 R
( 6) Cshow
1.000 UL
LTb
4470 448 M
0 63 V
0 4108 R
0 -63 V
0 -4248 R
( 8) Cshow
1.000 UL
LTb
5165 448 M
0 63 V
0 4108 R
0 -63 V
0 -4248 R
( 10) Cshow
1.000 UL
LTb
5860 448 M
0 63 V
0 4108 R
0 -63 V
0 -4248 R
( 12) Cshow
1.000 UL
LTb
1.000 UL
LTb
1689 4619 N
0 -4171 V
4171 0 V
0 4171 V
-4171 0 V
Z stroke
LCb setrgbcolor
1199 2533 M
currentpoint gsave translate -270 rotate 0 0 M
(y axis) Cshow
grestore
LTb
LCb setrgbcolor
3774 98 M
(x axis) Cshow
LTb
3774 4829 M
(Function at time 0.5) Cshow
1.000 UP
1.000 UL
LTb
% Begin plot #1
1.000 UP
1.000 UL
LT0
1689 3247 Pls
1702 3246 Pls
1715 3245 Pls
1728 3244 Pls
1741 3242 Pls
1754 3241 Pls
1767 3240 Pls
1780 3238 Pls
1793 3237 Pls
1806 3235 Pls
1819 3234 Pls
1832 3232 Pls
1845 3230 Pls
1858 3228 Pls
1871 3226 Pls
1884 3224 Pls
1897 3222 Pls
1910 3220 Pls
1923 3217 Pls
1936 3215 Pls
1949 3212 Pls
1962 3210 Pls
1975 3207 Pls
1988 3204 Pls
2001 3201 Pls
2014 3198 Pls
2027 3195 Pls
2040 3191 Pls
2053 3188 Pls
2066 3184 Pls
2079 3181 Pls
2092 3177 Pls
2105 3173 Pls
2118 3169 Pls
2131 3165 Pls
2144 3161 Pls
2157 3157 Pls
2170 3152 Pls
2183 3148 Pls
2196 3143 Pls
2209 3139 Pls
2222 3134 Pls
2235 3129 Pls
2248 3125 Pls
2261 3120 Pls
2274 3115 Pls
2287 3110 Pls
2300 3105 Pls
2313 3099 Pls
2326 3094 Pls
2339 3089 Pls
2352 3084 Pls
2365 3079 Pls
2378 3073 Pls
2391 3068 Pls
2404 3063 Pls
2417 3057 Pls
2430 3052 Pls
2443 3047 Pls
2456 3042 Pls
2469 3037 Pls
2482 3032 Pls
2495 3026 Pls
2508 3022 Pls
2521 3017 Pls
2534 3012 Pls
2547 3007 Pls
2560 3003 Pls
2573 2998 Pls
2586 2994 Pls
2599 2989 Pls
2612 2985 Pls
2625 2981 Pls
2638 2978 Pls
2651 2974 Pls
2664 2971 Pls
2677 2968 Pls
2690 2965 Pls
2703 2962 Pls
2716 2959 Pls
2729 2957 Pls
2741 2955 Pls
2754 2953 Pls
2767 2952 Pls
2780 2951 Pls
2793 2950 Pls
2806 2949 Pls
2819 2949 Pls
2832 2949 Pls
2845 2949 Pls
2858 2950 Pls
2871 2951 Pls
2884 2952 Pls
2897 2954 Pls
2910 2956 Pls
2923 2959 Pls
2936 2961 Pls
2949 2965 Pls
2962 2968 Pls
2975 2972 Pls
2988 2977 Pls
3001 2982 Pls
3014 2987 Pls
3027 2993 Pls
3040 2999 Pls
3053 3006 Pls
3066 3013 Pls
3079 3020 Pls
3092 3028 Pls
3105 3037 Pls
3118 3046 Pls
3131 3055 Pls
3144 3065 Pls
3157 3075 Pls
3170 3085 Pls
3183 3097 Pls
3196 3108 Pls
3209 3120 Pls
3222 3132 Pls
3235 3145 Pls
3248 3159 Pls
3261 3172 Pls
3274 3186 Pls
3287 3201 Pls
3300 3216 Pls
3313 3231 Pls
3326 3247 Pls
3339 3263 Pls
3352 3280 Pls
3365 3297 Pls
3378 3314 Pls
3391 3331 Pls
3404 3349 Pls
3417 3367 Pls
3430 3386 Pls
3443 3405 Pls
3456 3424 Pls
3469 3443 Pls
3482 3463 Pls
3495 3483 Pls
3508 3503 Pls
3521 3523 Pls
3534 3544 Pls
3547 3564 Pls
3560 3585 Pls
3573 3606 Pls
3586 3627 Pls
3599 3648 Pls
3612 3669 Pls
3625 3690 Pls
3638 3712 Pls
3651 3733 Pls
3664 3754 Pls
3677 3775 Pls
3690 3796 Pls
3703 3818 Pls
3716 3838 Pls
3729 3859 Pls
3742 3880 Pls
3755 3900 Pls
3768 3921 Pls
3781 3941 Pls
3794 3960 Pls
3807 3980 Pls
3820 3999 Pls
3833 4018 Pls
3846 4036 Pls
3859 4054 Pls
3872 4072 Pls
3885 4089 Pls
3898 4106 Pls
3911 4122 Pls
3924 4138 Pls
3937 4153 Pls
3950 4168 Pls
3963 4182 Pls
3976 4196 Pls
3989 4208 Pls
4002 4221 Pls
4015 4232 Pls
4028 4243 Pls
4041 4253 Pls
4054 4262 Pls
4067 4271 Pls
4080 4278 Pls
4093 4285 Pls
4106 4291 Pls
4119 4296 Pls
4132 4301 Pls
4145 4304 Pls
4158 4306 Pls
4171 4308 Pls
4184 4308 Pls
4197 4308 Pls
4210 4306 Pls
4223 4304 Pls
4236 4300 Pls
4249 4296 Pls
4262 4290 Pls
4275 4284 Pls
4288 4276 Pls
4301 4267 Pls
4314 4257 Pls
4327 4246 Pls
4340 4234 Pls
4353 4221 Pls
4366 4206 Pls
4379 4191 Pls
4392 4174 Pls
4405 4156 Pls
4418 4137 Pls
4431 4117 Pls
4444 4096 Pls
4457 4074 Pls
4470 4050 Pls
4483 4026 Pls
4496 4000 Pls
4509 3973 Pls
4522 3945 Pls
4535 3916 Pls
4548 3886 Pls
4561 3855 Pls
4574 3823 Pls
4587 3789 Pls
4600 3755 Pls
4613 3720 Pls
4626 3683 Pls
4639 3646 Pls
4652 3608 Pls
4665 3568 Pls
4678 3528 Pls
4691 3487 Pls
4704 3445 Pls
4717 3402 Pls
4730 3359 Pls
4743 3314 Pls
4756 3269 Pls
4769 3223 Pls
4782 3177 Pls
4795 3129 Pls
4808 3082 Pls
4820 3033 Pls
4833 2984 Pls
4846 2935 Pls
4859 2885 Pls
4872 2834 Pls
4885 2783 Pls
4898 2732 Pls
4911 2680 Pls
4924 2629 Pls
4937 2577 Pls
4950 2524 Pls
4963 2472 Pls
4976 2419 Pls
4989 2367 Pls
5002 2314 Pls
5015 2262 Pls
5028 2209 Pls
5041 2157 Pls
5054 2105 Pls
5067 2053 Pls
5080 2001 Pls
5093 1950 Pls
5106 1899 Pls
5119 1849 Pls
5132 1799 Pls
5145 1750 Pls
5158 1701 Pls
5171 1653 Pls
5184 1605 Pls
5197 1559 Pls
5210 1513 Pls
5223 1468 Pls
5236 1423 Pls
5249 1380 Pls
5262 1338 Pls
5275 1297 Pls
5288 1257 Pls
5301 1218 Pls
5314 1180 Pls
5327 1144 Pls
5340 1109 Pls
5353 1075 Pls
5366 1043 Pls
5379 1012 Pls
5392 982 Pls
5405 955 Pls
5418 928 Pls
5431 904 Pls
5444 881 Pls
5457 859 Pls
5470 840 Pls
5483 822 Pls
5496 806 Pls
5509 792 Pls
5522 780 Pls
5535 769 Pls
5548 761 Pls
5561 755 Pls
5574 750 Pls
5587 748 Pls
5600 748 Pls
5613 750 Pls
5626 754 Pls
5639 760 Pls
5652 768 Pls
5665 779 Pls
5678 792 Pls
5691 807 Pls
5704 824 Pls
5717 843 Pls
5730 865 Pls
5743 889 Pls
5756 915 Pls
5769 943 Pls
5782 974 Pls
5795 1007 Pls
5808 1042 Pls
5821 1080 Pls
5834 1119 Pls
5847 1161 Pls
% End plot #1
1.000 UL
LTb
1689 4619 N
0 -4171 V
4171 0 V
0 4171 V
-4171 0 V
Z stroke
1.000 UP
1.000 UL
LTb
stroke
grestore
end
showpage
%%Trailer
%%DocumentFonts: Helvetica
%%Pages: 1
