%!PS-Adobe-2.0
%%Title: plot1.0.eps
%%Creator: gnuplot 4.6 patchlevel 4
%%CreationDate: Fri Dec 11 12:43:20 2015
%%DocumentFonts: (atend)
%%BoundingBox: 50 50 554 770
%%Orientation: Landscape
%%Pages: (atend)
%%EndComments
%%BeginProlog
/gnudict 256 dict def
gnudict begin
%
% The following true/false flags may be edited by hand if desired.
% The unit line width and grayscale image gamma correction may also be changed.
%
/Color false def
/Blacktext false def
/Solid false def
/Dashlength 1 def
/Landscape true def
/Level1 false def
/Rounded false def
/ClipToBoundingBox false def
/SuppressPDFMark false def
/TransparentPatterns false def
/gnulinewidth 5.000 def
/userlinewidth gnulinewidth def
/Gamma 1.0 def
/BackgroundColor {-1.000 -1.000 -1.000} def
%
/vshift -46 def
/dl1 {
  10.0 Dashlength mul mul
  Rounded { currentlinewidth 0.75 mul sub dup 0 le { pop 0.01 } if } if
} def
/dl2 {
  10.0 Dashlength mul mul
  Rounded { currentlinewidth 0.75 mul add } if
} def
/hpt_ 31.5 def
/vpt_ 31.5 def
/hpt hpt_ def
/vpt vpt_ def
/doclip {
  ClipToBoundingBox {
    newpath 50 50 moveto 554 50 lineto 554 770 lineto 50 770 lineto closepath
    clip
  } if
} def
%
% Gnuplot Prolog Version 4.6 (September 2012)
%
%/SuppressPDFMark true def
%
/M {moveto} bind def
/L {lineto} bind def
/R {rmoveto} bind def
/V {rlineto} bind def
/N {newpath moveto} bind def
/Z {closepath} bind def
/C {setrgbcolor} bind def
/f {rlineto fill} bind def
/g {setgray} bind def
/Gshow {show} def   % May be redefined later in the file to support UTF-8
/vpt2 vpt 2 mul def
/hpt2 hpt 2 mul def
/Lshow {currentpoint stroke M 0 vshift R 
	Blacktext {gsave 0 setgray show grestore} {show} ifelse} def
/Rshow {currentpoint stroke M dup stringwidth pop neg vshift R
	Blacktext {gsave 0 setgray show grestore} {show} ifelse} def
/Cshow {currentpoint stroke M dup stringwidth pop -2 div vshift R 
	Blacktext {gsave 0 setgray show grestore} {show} ifelse} def
/UP {dup vpt_ mul /vpt exch def hpt_ mul /hpt exch def
  /hpt2 hpt 2 mul def /vpt2 vpt 2 mul def} def
/DL {Color {setrgbcolor Solid {pop []} if 0 setdash}
 {pop pop pop 0 setgray Solid {pop []} if 0 setdash} ifelse} def
/BL {stroke userlinewidth 2 mul setlinewidth
	Rounded {1 setlinejoin 1 setlinecap} if} def
/AL {stroke userlinewidth 2 div setlinewidth
	Rounded {1 setlinejoin 1 setlinecap} if} def
/UL {dup gnulinewidth mul /userlinewidth exch def
	dup 1 lt {pop 1} if 10 mul /udl exch def} def
/PL {stroke userlinewidth setlinewidth
	Rounded {1 setlinejoin 1 setlinecap} if} def
3.8 setmiterlimit
% Default Line colors
/LCw {1 1 1} def
/LCb {0 0 0} def
/LCa {0 0 0} def
/LC0 {1 0 0} def
/LC1 {0 1 0} def
/LC2 {0 0 1} def
/LC3 {1 0 1} def
/LC4 {0 1 1} def
/LC5 {1 1 0} def
/LC6 {0 0 0} def
/LC7 {1 0.3 0} def
/LC8 {0.5 0.5 0.5} def
% Default Line Types
/LTw {PL [] 1 setgray} def
/LTb {BL [] LCb DL} def
/LTa {AL [1 udl mul 2 udl mul] 0 setdash LCa setrgbcolor} def
/LT0 {PL [] LC0 DL} def
/LT1 {PL [4 dl1 2 dl2] LC1 DL} def
/LT2 {PL [2 dl1 3 dl2] LC2 DL} def
/LT3 {PL [1 dl1 1.5 dl2] LC3 DL} def
/LT4 {PL [6 dl1 2 dl2 1 dl1 2 dl2] LC4 DL} def
/LT5 {PL [3 dl1 3 dl2 1 dl1 3 dl2] LC5 DL} def
/LT6 {PL [2 dl1 2 dl2 2 dl1 6 dl2] LC6 DL} def
/LT7 {PL [1 dl1 2 dl2 6 dl1 2 dl2 1 dl1 2 dl2] LC7 DL} def
/LT8 {PL [2 dl1 2 dl2 2 dl1 2 dl2 2 dl1 2 dl2 2 dl1 4 dl2] LC8 DL} def
/Pnt {stroke [] 0 setdash gsave 1 setlinecap M 0 0 V stroke grestore} def
/Dia {stroke [] 0 setdash 2 copy vpt add M
  hpt neg vpt neg V hpt vpt neg V
  hpt vpt V hpt neg vpt V closepath stroke
  Pnt} def
/Pls {stroke [] 0 setdash vpt sub M 0 vpt2 V
  currentpoint stroke M
  hpt neg vpt neg R hpt2 0 V stroke
 } def
/Box {stroke [] 0 setdash 2 copy exch hpt sub exch vpt add M
  0 vpt2 neg V hpt2 0 V 0 vpt2 V
  hpt2 neg 0 V closepath stroke
  Pnt} def
/Crs {stroke [] 0 setdash exch hpt sub exch vpt add M
  hpt2 vpt2 neg V currentpoint stroke M
  hpt2 neg 0 R hpt2 vpt2 V stroke} def
/TriU {stroke [] 0 setdash 2 copy vpt 1.12 mul add M
  hpt neg vpt -1.62 mul V
  hpt 2 mul 0 V
  hpt neg vpt 1.62 mul V closepath stroke
  Pnt} def
/Star {2 copy Pls Crs} def
/BoxF {stroke [] 0 setdash exch hpt sub exch vpt add M
  0 vpt2 neg V hpt2 0 V 0 vpt2 V
  hpt2 neg 0 V closepath fill} def
/TriUF {stroke [] 0 setdash vpt 1.12 mul add M
  hpt neg vpt -1.62 mul V
  hpt 2 mul 0 V
  hpt neg vpt 1.62 mul V closepath fill} def
/TriD {stroke [] 0 setdash 2 copy vpt 1.12 mul sub M
  hpt neg vpt 1.62 mul V
  hpt 2 mul 0 V
  hpt neg vpt -1.62 mul V closepath stroke
  Pnt} def
/TriDF {stroke [] 0 setdash vpt 1.12 mul sub M
  hpt neg vpt 1.62 mul V
  hpt 2 mul 0 V
  hpt neg vpt -1.62 mul V closepath fill} def
/DiaF {stroke [] 0 setdash vpt add M
  hpt neg vpt neg V hpt vpt neg V
  hpt vpt V hpt neg vpt V closepath fill} def
/Pent {stroke [] 0 setdash 2 copy gsave
  translate 0 hpt M 4 {72 rotate 0 hpt L} repeat
  closepath stroke grestore Pnt} def
/PentF {stroke [] 0 setdash gsave
  translate 0 hpt M 4 {72 rotate 0 hpt L} repeat
  closepath fill grestore} def
/Circle {stroke [] 0 setdash 2 copy
  hpt 0 360 arc stroke Pnt} def
/CircleF {stroke [] 0 setdash hpt 0 360 arc fill} def
/C0 {BL [] 0 setdash 2 copy moveto vpt 90 450 arc} bind def
/C1 {BL [] 0 setdash 2 copy moveto
	2 copy vpt 0 90 arc closepath fill
	vpt 0 360 arc closepath} bind def
/C2 {BL [] 0 setdash 2 copy moveto
	2 copy vpt 90 180 arc closepath fill
	vpt 0 360 arc closepath} bind def
/C3 {BL [] 0 setdash 2 copy moveto
	2 copy vpt 0 180 arc closepath fill
	vpt 0 360 arc closepath} bind def
/C4 {BL [] 0 setdash 2 copy moveto
	2 copy vpt 180 270 arc closepath fill
	vpt 0 360 arc closepath} bind def
/C5 {BL [] 0 setdash 2 copy moveto
	2 copy vpt 0 90 arc
	2 copy moveto
	2 copy vpt 180 270 arc closepath fill
	vpt 0 360 arc} bind def
/C6 {BL [] 0 setdash 2 copy moveto
	2 copy vpt 90 270 arc closepath fill
	vpt 0 360 arc closepath} bind def
/C7 {BL [] 0 setdash 2 copy moveto
	2 copy vpt 0 270 arc closepath fill
	vpt 0 360 arc closepath} bind def
/C8 {BL [] 0 setdash 2 copy moveto
	2 copy vpt 270 360 arc closepath fill
	vpt 0 360 arc closepath} bind def
/C9 {BL [] 0 setdash 2 copy moveto
	2 copy vpt 270 450 arc closepath fill
	vpt 0 360 arc closepath} bind def
/C10 {BL [] 0 setdash 2 copy 2 copy moveto vpt 270 360 arc closepath fill
	2 copy moveto
	2 copy vpt 90 180 arc closepath fill
	vpt 0 360 arc closepath} bind def
/C11 {BL [] 0 setdash 2 copy moveto
	2 copy vpt 0 180 arc closepath fill
	2 copy moveto
	2 copy vpt 270 360 arc closepath fill
	vpt 0 360 arc closepath} bind def
/C12 {BL [] 0 setdash 2 copy moveto
	2 copy vpt 180 360 arc closepath fill
	vpt 0 360 arc closepath} bind def
/C13 {BL [] 0 setdash 2 copy moveto
	2 copy vpt 0 90 arc closepath fill
	2 copy moveto
	2 copy vpt 180 360 arc closepath fill
	vpt 0 360 arc closepath} bind def
/C14 {BL [] 0 setdash 2 copy moveto
	2 copy vpt 90 360 arc closepath fill
	vpt 0 360 arc} bind def
/C15 {BL [] 0 setdash 2 copy vpt 0 360 arc closepath fill
	vpt 0 360 arc closepath} bind def
/Rec {newpath 4 2 roll moveto 1 index 0 rlineto 0 exch rlineto
	neg 0 rlineto closepath} bind def
/Square {dup Rec} bind def
/Bsquare {vpt sub exch vpt sub exch vpt2 Square} bind def
/S0 {BL [] 0 setdash 2 copy moveto 0 vpt rlineto BL Bsquare} bind def
/S1 {BL [] 0 setdash 2 copy vpt Square fill Bsquare} bind def
/S2 {BL [] 0 setdash 2 copy exch vpt sub exch vpt Square fill Bsquare} bind def
/S3 {BL [] 0 setdash 2 copy exch vpt sub exch vpt2 vpt Rec fill Bsquare} bind def
/S4 {BL [] 0 setdash 2 copy exch vpt sub exch vpt sub vpt Square fill Bsquare} bind def
/S5 {BL [] 0 setdash 2 copy 2 copy vpt Square fill
	exch vpt sub exch vpt sub vpt Square fill Bsquare} bind def
/S6 {BL [] 0 setdash 2 copy exch vpt sub exch vpt sub vpt vpt2 Rec fill Bsquare} bind def
/S7 {BL [] 0 setdash 2 copy exch vpt sub exch vpt sub vpt vpt2 Rec fill
	2 copy vpt Square fill Bsquare} bind def
/S8 {BL [] 0 setdash 2 copy vpt sub vpt Square fill Bsquare} bind def
/S9 {BL [] 0 setdash 2 copy vpt sub vpt vpt2 Rec fill Bsquare} bind def
/S10 {BL [] 0 setdash 2 copy vpt sub vpt Square fill 2 copy exch vpt sub exch vpt Square fill
	Bsquare} bind def
/S11 {BL [] 0 setdash 2 copy vpt sub vpt Square fill 2 copy exch vpt sub exch vpt2 vpt Rec fill
	Bsquare} bind def
/S12 {BL [] 0 setdash 2 copy exch vpt sub exch vpt sub vpt2 vpt Rec fill Bsquare} bind def
/S13 {BL [] 0 setdash 2 copy exch vpt sub exch vpt sub vpt2 vpt Rec fill
	2 copy vpt Square fill Bsquare} bind def
/S14 {BL [] 0 setdash 2 copy exch vpt sub exch vpt sub vpt2 vpt Rec fill
	2 copy exch vpt sub exch vpt Square fill Bsquare} bind def
/S15 {BL [] 0 setdash 2 copy Bsquare fill Bsquare} bind def
/D0 {gsave translate 45 rotate 0 0 S0 stroke grestore} bind def
/D1 {gsave translate 45 rotate 0 0 S1 stroke grestore} bind def
/D2 {gsave translate 45 rotate 0 0 S2 stroke grestore} bind def
/D3 {gsave translate 45 rotate 0 0 S3 stroke grestore} bind def
/D4 {gsave translate 45 rotate 0 0 S4 stroke grestore} bind def
/D5 {gsave translate 45 rotate 0 0 S5 stroke grestore} bind def
/D6 {gsave translate 45 rotate 0 0 S6 stroke grestore} bind def
/D7 {gsave translate 45 rotate 0 0 S7 stroke grestore} bind def
/D8 {gsave translate 45 rotate 0 0 S8 stroke grestore} bind def
/D9 {gsave translate 45 rotate 0 0 S9 stroke grestore} bind def
/D10 {gsave translate 45 rotate 0 0 S10 stroke grestore} bind def
/D11 {gsave translate 45 rotate 0 0 S11 stroke grestore} bind def
/D12 {gsave translate 45 rotate 0 0 S12 stroke grestore} bind def
/D13 {gsave translate 45 rotate 0 0 S13 stroke grestore} bind def
/D14 {gsave translate 45 rotate 0 0 S14 stroke grestore} bind def
/D15 {gsave translate 45 rotate 0 0 S15 stroke grestore} bind def
/DiaE {stroke [] 0 setdash vpt add M
  hpt neg vpt neg V hpt vpt neg V
  hpt vpt V hpt neg vpt V closepath stroke} def
/BoxE {stroke [] 0 setdash exch hpt sub exch vpt add M
  0 vpt2 neg V hpt2 0 V 0 vpt2 V
  hpt2 neg 0 V closepath stroke} def
/TriUE {stroke [] 0 setdash vpt 1.12 mul add M
  hpt neg vpt -1.62 mul V
  hpt 2 mul 0 V
  hpt neg vpt 1.62 mul V closepath stroke} def
/TriDE {stroke [] 0 setdash vpt 1.12 mul sub M
  hpt neg vpt 1.62 mul V
  hpt 2 mul 0 V
  hpt neg vpt -1.62 mul V closepath stroke} def
/PentE {stroke [] 0 setdash gsave
  translate 0 hpt M 4 {72 rotate 0 hpt L} repeat
  closepath stroke grestore} def
/CircE {stroke [] 0 setdash 
  hpt 0 360 arc stroke} def
/Opaque {gsave closepath 1 setgray fill grestore 0 setgray closepath} def
/DiaW {stroke [] 0 setdash vpt add M
  hpt neg vpt neg V hpt vpt neg V
  hpt vpt V hpt neg vpt V Opaque stroke} def
/BoxW {stroke [] 0 setdash exch hpt sub exch vpt add M
  0 vpt2 neg V hpt2 0 V 0 vpt2 V
  hpt2 neg 0 V Opaque stroke} def
/TriUW {stroke [] 0 setdash vpt 1.12 mul add M
  hpt neg vpt -1.62 mul V
  hpt 2 mul 0 V
  hpt neg vpt 1.62 mul V Opaque stroke} def
/TriDW {stroke [] 0 setdash vpt 1.12 mul sub M
  hpt neg vpt 1.62 mul V
  hpt 2 mul 0 V
  hpt neg vpt -1.62 mul V Opaque stroke} def
/PentW {stroke [] 0 setdash gsave
  translate 0 hpt M 4 {72 rotate 0 hpt L} repeat
  Opaque stroke grestore} def
/CircW {stroke [] 0 setdash 
  hpt 0 360 arc Opaque stroke} def
/BoxFill {gsave Rec 1 setgray fill grestore} def
/Density {
  /Fillden exch def
  currentrgbcolor
  /ColB exch def /ColG exch def /ColR exch def
  /ColR ColR Fillden mul Fillden sub 1 add def
  /ColG ColG Fillden mul Fillden sub 1 add def
  /ColB ColB Fillden mul Fillden sub 1 add def
  ColR ColG ColB setrgbcolor} def
/BoxColFill {gsave Rec PolyFill} def
/PolyFill {gsave Density fill grestore grestore} def
/h {rlineto rlineto rlineto gsave closepath fill grestore} bind def
%
% PostScript Level 1 Pattern Fill routine for rectangles
% Usage: x y w h s a XX PatternFill
%	x,y = lower left corner of box to be filled
%	w,h = width and height of box
%	  a = angle in degrees between lines and x-axis
%	 XX = 0/1 for no/yes cross-hatch
%
/PatternFill {gsave /PFa [ 9 2 roll ] def
  PFa 0 get PFa 2 get 2 div add PFa 1 get PFa 3 get 2 div add translate
  PFa 2 get -2 div PFa 3 get -2 div PFa 2 get PFa 3 get Rec
  TransparentPatterns {} {gsave 1 setgray fill grestore} ifelse
  clip
  currentlinewidth 0.5 mul setlinewidth
  /PFs PFa 2 get dup mul PFa 3 get dup mul add sqrt def
  0 0 M PFa 5 get rotate PFs -2 div dup translate
  0 1 PFs PFa 4 get div 1 add floor cvi
	{PFa 4 get mul 0 M 0 PFs V} for
  0 PFa 6 get ne {
	0 1 PFs PFa 4 get div 1 add floor cvi
	{PFa 4 get mul 0 2 1 roll M PFs 0 V} for
 } if
  stroke grestore} def
%
/languagelevel where
 {pop languagelevel} {1} ifelse
 2 lt
	{/InterpretLevel1 true def}
	{/InterpretLevel1 Level1 def}
 ifelse
%
% PostScript level 2 pattern fill definitions
%
/Level2PatternFill {
/Tile8x8 {/PaintType 2 /PatternType 1 /TilingType 1 /BBox [0 0 8 8] /XStep 8 /YStep 8}
	bind def
/KeepColor {currentrgbcolor [/Pattern /DeviceRGB] setcolorspace} bind def
<< Tile8x8
 /PaintProc {0.5 setlinewidth pop 0 0 M 8 8 L 0 8 M 8 0 L stroke} 
>> matrix makepattern
/Pat1 exch def
<< Tile8x8
 /PaintProc {0.5 setlinewidth pop 0 0 M 8 8 L 0 8 M 8 0 L stroke
	0 4 M 4 8 L 8 4 L 4 0 L 0 4 L stroke}
>> matrix makepattern
/Pat2 exch def
<< Tile8x8
 /PaintProc {0.5 setlinewidth pop 0 0 M 0 8 L
	8 8 L 8 0 L 0 0 L fill}
>> matrix makepattern
/Pat3 exch def
<< Tile8x8
 /PaintProc {0.5 setlinewidth pop -4 8 M 8 -4 L
	0 12 M 12 0 L stroke}
>> matrix makepattern
/Pat4 exch def
<< Tile8x8
 /PaintProc {0.5 setlinewidth pop -4 0 M 8 12 L
	0 -4 M 12 8 L stroke}
>> matrix makepattern
/Pat5 exch def
<< Tile8x8
 /PaintProc {0.5 setlinewidth pop -2 8 M 4 -4 L
	0 12 M 8 -4 L 4 12 M 10 0 L stroke}
>> matrix makepattern
/Pat6 exch def
<< Tile8x8
 /PaintProc {0.5 setlinewidth pop -2 0 M 4 12 L
	0 -4 M 8 12 L 4 -4 M 10 8 L stroke}
>> matrix makepattern
/Pat7 exch def
<< Tile8x8
 /PaintProc {0.5 setlinewidth pop 8 -2 M -4 4 L
	12 0 M -4 8 L 12 4 M 0 10 L stroke}
>> matrix makepattern
/Pat8 exch def
<< Tile8x8
 /PaintProc {0.5 setlinewidth pop 0 -2 M 12 4 L
	-4 0 M 12 8 L -4 4 M 8 10 L stroke}
>> matrix makepattern
/Pat9 exch def
/Pattern1 {PatternBgnd KeepColor Pat1 setpattern} bind def
/Pattern2 {PatternBgnd KeepColor Pat2 setpattern} bind def
/Pattern3 {PatternBgnd KeepColor Pat3 setpattern} bind def
/Pattern4 {PatternBgnd KeepColor Landscape {Pat5} {Pat4} ifelse setpattern} bind def
/Pattern5 {PatternBgnd KeepColor Landscape {Pat4} {Pat5} ifelse setpattern} bind def
/Pattern6 {PatternBgnd KeepColor Landscape {Pat9} {Pat6} ifelse setpattern} bind def
/Pattern7 {PatternBgnd KeepColor Landscape {Pat8} {Pat7} ifelse setpattern} bind def
} def
%
%
%End of PostScript Level 2 code
%
/PatternBgnd {
  TransparentPatterns {} {gsave 1 setgray fill grestore} ifelse
} def
%
% Substitute for Level 2 pattern fill codes with
% grayscale if Level 2 support is not selected.
%
/Level1PatternFill {
/Pattern1 {0.250 Density} bind def
/Pattern2 {0.500 Density} bind def
/Pattern3 {0.750 Density} bind def
/Pattern4 {0.125 Density} bind def
/Pattern5 {0.375 Density} bind def
/Pattern6 {0.625 Density} bind def
/Pattern7 {0.875 Density} bind def
} def
%
% Now test for support of Level 2 code
%
Level1 {Level1PatternFill} {Level2PatternFill} ifelse
%
/Symbol-Oblique /Symbol findfont [1 0 .167 1 0 0] makefont
dup length dict begin {1 index /FID eq {pop pop} {def} ifelse} forall
currentdict end definefont pop
Level1 SuppressPDFMark or 
{} {
/SDict 10 dict def
systemdict /pdfmark known not {
  userdict /pdfmark systemdict /cleartomark get put
} if
SDict begin [
  /Title (plot1.0.eps)
  /Subject (gnuplot plot)
  /Creator (gnuplot 4.6 patchlevel 4)
  /Author (peter)
%  /Producer (gnuplot)
%  /Keywords ()
  /CreationDate (Fri Dec 11 12:43:20 2015)
  /DOCINFO pdfmark
end
} ifelse
end
%%EndProlog
%%Page: 1 1
gnudict begin
gsave
doclip
50 50 translate
0.100 0.100 scale
90 rotate
0 -5040 translate
0 setgray
newpath
(Helvetica) findfont 140 scalefont setfont
BackgroundColor 0 lt 3 1 roll 0 lt exch 0 lt or or not {gsave BackgroundColor C clippath fill grestore} if
1.000 UL
LTb
1689 448 M
63 0 V
4108 0 R
-63 0 V
-4192 0 R
(-40) Rshow
1.000 UL
LTb
1689 1143 M
63 0 V
4108 0 R
-63 0 V
-4192 0 R
(-20) Rshow
1.000 UL
LTb
1689 1838 M
63 0 V
4108 0 R
-63 0 V
-4192 0 R
( 0) Rshow
1.000 UL
LTb
1689 2534 M
63 0 V
4108 0 R
-63 0 V
-4192 0 R
( 20) Rshow
1.000 UL
LTb
1689 3229 M
63 0 V
4108 0 R
-63 0 V
-4192 0 R
( 40) Rshow
1.000 UL
LTb
1689 3924 M
63 0 V
4108 0 R
-63 0 V
-4192 0 R
( 60) Rshow
1.000 UL
LTb
1689 4619 M
63 0 V
4108 0 R
-63 0 V
-4192 0 R
( 80) Rshow
1.000 UL
LTb
1689 448 M
0 63 V
0 4108 R
0 -63 V
0 -4248 R
( 0) Cshow
1.000 UL
LTb
2384 448 M
0 63 V
0 4108 R
0 -63 V
0 -4248 R
( 2) Cshow
1.000 UL
LTb
3079 448 M
0 63 V
0 4108 R
0 -63 V
0 -4248 R
( 4) Cshow
1.000 UL
LTb
3775 448 M
0 63 V
0 4108 R
0 -63 V
0 -4248 R
( 6) Cshow
1.000 UL
LTb
4470 448 M
0 63 V
0 4108 R
0 -63 V
0 -4248 R
( 8) Cshow
1.000 UL
LTb
5165 448 M
0 63 V
0 4108 R
0 -63 V
0 -4248 R
( 10) Cshow
1.000 UL
LTb
5860 448 M
0 63 V
0 4108 R
0 -63 V
0 -4248 R
( 12) Cshow
1.000 UL
LTb
1.000 UL
LTb
1689 4619 N
0 -4171 V
4171 0 V
0 4171 V
-4171 0 V
Z stroke
LCb setrgbcolor
1199 2533 M
currentpoint gsave translate -270 rotate 0 0 M
(y axis) Cshow
grestore
LTb
LCb setrgbcolor
3774 98 M
(x axis) Cshow
LTb
3774 4829 M
(Function at time 1.0) Cshow
1.000 UP
1.000 UL
LTb
% Begin plot #1
1.000 UP
1.000 UL
LT0
1689 1804 Pls
1702 1805 Pls
1715 1805 Pls
1728 1806 Pls
1741 1806 Pls
1754 1807 Pls
1767 1808 Pls
1780 1808 Pls
1793 1809 Pls
1806 1810 Pls
1819 1811 Pls
1832 1812 Pls
1845 1813 Pls
1858 1815 Pls
1871 1816 Pls
1884 1817 Pls
1897 1819 Pls
1910 1820 Pls
1923 1822 Pls
1936 1824 Pls
1949 1826 Pls
1962 1828 Pls
1975 1830 Pls
1988 1832 Pls
2001 1834 Pls
2014 1837 Pls
2027 1839 Pls
2040 1842 Pls
2053 1845 Pls
2066 1848 Pls
2079 1851 Pls
2092 1854 Pls
2105 1858 Pls
2118 1861 Pls
2131 1865 Pls
2144 1869 Pls
2157 1873 Pls
2170 1877 Pls
2183 1881 Pls
2196 1885 Pls
2209 1890 Pls
2222 1894 Pls
2235 1899 Pls
2248 1904 Pls
2261 1909 Pls
2274 1914 Pls
2287 1919 Pls
2300 1924 Pls
2313 1929 Pls
2326 1935 Pls
2339 1941 Pls
2352 1946 Pls
2365 1952 Pls
2378 1958 Pls
2391 1964 Pls
2404 1970 Pls
2417 1976 Pls
2430 1982 Pls
2443 1989 Pls
2456 1995 Pls
2469 2001 Pls
2482 2008 Pls
2495 2014 Pls
2508 2020 Pls
2521 2027 Pls
2534 2033 Pls
2547 2040 Pls
2560 2046 Pls
2573 2052 Pls
2586 2059 Pls
2599 2065 Pls
2612 2071 Pls
2625 2078 Pls
2638 2084 Pls
2651 2090 Pls
2664 2096 Pls
2677 2102 Pls
2690 2107 Pls
2703 2113 Pls
2716 2118 Pls
2729 2124 Pls
2741 2129 Pls
2754 2134 Pls
2767 2138 Pls
2780 2143 Pls
2793 2147 Pls
2806 2152 Pls
2819 2155 Pls
2832 2159 Pls
2845 2162 Pls
2858 2166 Pls
2871 2168 Pls
2884 2171 Pls
2897 2173 Pls
2910 2175 Pls
2923 2177 Pls
2936 2178 Pls
2949 2179 Pls
2962 2180 Pls
2975 2180 Pls
2988 2180 Pls
3001 2179 Pls
3014 2178 Pls
3027 2177 Pls
3040 2175 Pls
3053 2173 Pls
3066 2170 Pls
3079 2167 Pls
3092 2164 Pls
3105 2160 Pls
3118 2155 Pls
3131 2150 Pls
3144 2145 Pls
3157 2139 Pls
3170 2133 Pls
3183 2126 Pls
3196 2119 Pls
3209 2111 Pls
3222 2102 Pls
3235 2094 Pls
3248 2084 Pls
3261 2074 Pls
3274 2064 Pls
3287 2053 Pls
3300 2042 Pls
3313 2030 Pls
3326 2018 Pls
3339 2005 Pls
3352 1991 Pls
3365 1978 Pls
3378 1963 Pls
3391 1948 Pls
3404 1933 Pls
3417 1917 Pls
3430 1901 Pls
3443 1884 Pls
3456 1867 Pls
3469 1849 Pls
3482 1831 Pls
3495 1813 Pls
3508 1794 Pls
3521 1775 Pls
3534 1755 Pls
3547 1735 Pls
3560 1714 Pls
3573 1694 Pls
3586 1672 Pls
3599 1651 Pls
3612 1629 Pls
3625 1607 Pls
3638 1585 Pls
3651 1562 Pls
3664 1540 Pls
3677 1517 Pls
3690 1493 Pls
3703 1470 Pls
3716 1446 Pls
3729 1423 Pls
3742 1399 Pls
3755 1375 Pls
3768 1351 Pls
3781 1327 Pls
3794 1303 Pls
3807 1279 Pls
3820 1255 Pls
3833 1231 Pls
3846 1207 Pls
3859 1184 Pls
3872 1160 Pls
3885 1137 Pls
3898 1113 Pls
3911 1090 Pls
3924 1068 Pls
3937 1045 Pls
3950 1023 Pls
3963 1001 Pls
3976 979 Pls
3989 958 Pls
4002 937 Pls
4015 917 Pls
4028 897 Pls
4041 878 Pls
4054 859 Pls
4067 841 Pls
4080 823 Pls
4093 806 Pls
4106 789 Pls
4119 773 Pls
4132 758 Pls
4145 744 Pls
4158 730 Pls
4171 717 Pls
4184 705 Pls
4197 694 Pls
4210 683 Pls
4223 673 Pls
4236 665 Pls
4249 657 Pls
4262 650 Pls
4275 644 Pls
4288 639 Pls
4301 635 Pls
4314 632 Pls
4327 630 Pls
4340 629 Pls
4353 630 Pls
4366 631 Pls
4379 634 Pls
4392 637 Pls
4405 642 Pls
4418 648 Pls
4431 655 Pls
4444 663 Pls
4457 672 Pls
4470 683 Pls
4483 695 Pls
4496 708 Pls
4509 722 Pls
4522 738 Pls
4535 754 Pls
4548 772 Pls
4561 792 Pls
4574 812 Pls
4587 834 Pls
4600 857 Pls
4613 881 Pls
4626 907 Pls
4639 933 Pls
4652 961 Pls
4665 990 Pls
4678 1021 Pls
4691 1052 Pls
4704 1085 Pls
4717 1119 Pls
4730 1154 Pls
4743 1190 Pls
4756 1227 Pls
4769 1266 Pls
4782 1305 Pls
4795 1346 Pls
4808 1387 Pls
4820 1430 Pls
4833 1474 Pls
4846 1518 Pls
4859 1564 Pls
4872 1610 Pls
4885 1658 Pls
4898 1706 Pls
4911 1755 Pls
4924 1805 Pls
4937 1855 Pls
4950 1907 Pls
4963 1959 Pls
4976 2011 Pls
4989 2065 Pls
5002 2118 Pls
5015 2173 Pls
5028 2228 Pls
5041 2283 Pls
5054 2339 Pls
5067 2395 Pls
5080 2451 Pls
5093 2508 Pls
5106 2564 Pls
5119 2621 Pls
5132 2679 Pls
5145 2736 Pls
5158 2793 Pls
5171 2850 Pls
5184 2907 Pls
5197 2964 Pls
5210 3021 Pls
5223 3077 Pls
5236 3133 Pls
5249 3189 Pls
5262 3245 Pls
5275 3300 Pls
5288 3354 Pls
5301 3408 Pls
5314 3461 Pls
5327 3514 Pls
5340 3566 Pls
5353 3617 Pls
5366 3667 Pls
5379 3716 Pls
5392 3764 Pls
5405 3811 Pls
5418 3858 Pls
5431 3903 Pls
5444 3947 Pls
5457 3989 Pls
5470 4031 Pls
5483 4071 Pls
5496 4109 Pls
5509 4146 Pls
5522 4182 Pls
5535 4216 Pls
5548 4249 Pls
5561 4280 Pls
5574 4309 Pls
5587 4337 Pls
5600 4362 Pls
5613 4386 Pls
5626 4408 Pls
5639 4428 Pls
5652 4447 Pls
5665 4463 Pls
5678 4477 Pls
5691 4489 Pls
5704 4499 Pls
5717 4507 Pls
5730 4513 Pls
5743 4516 Pls
5756 4518 Pls
5769 4517 Pls
5782 4514 Pls
5795 4508 Pls
5808 4500 Pls
5821 4490 Pls
5834 4478 Pls
5847 4463 Pls
% End plot #1
1.000 UL
LTb
1689 4619 N
0 -4171 V
4171 0 V
0 4171 V
-4171 0 V
Z stroke
1.000 UP
1.000 UL
LTb
stroke
grestore
end
showpage
%%Trailer
%%DocumentFonts: Helvetica
%%Pages: 1
